15

4 10
2
r 0 6 e
r 2 3 w
84 28

5 5
34
h 2 0 w
r 2 0 s
f 1 0 s
f 3 3 e
t 3 4 e
r 2 2 w
t 2 0 w
h 3 2 s
t 1 2 n
h 4 0 w
r 0 2 s
r 0 1 n
t 4 3 s
t 4 3 e
h 2 2 s
t 0 4 e
r 4 1 w
h 1 3 s
h 4 2 n
r 0 3 w
t 3 3 w
h 4 4 s
h 4 1 e
f 3 1 w
f 0 1 w
r 1 4 e
h 3 1 w
h 4 3 w
f 0 3 e
h 4 1 s
h 3 0 s
r 4 4 e
h 4 4 s
f 0 3 s
11 50

2 1
31
h 1 0 w
r 0 0 n
h 1 0 e
t 0 0 w
f 1 0 w
r 1 0 e
f 1 0 e
h 1 0 w
t 0 0 n
t 0 0 n
r 1 0 e
t 0 0 s
r 0 0 w
f 0 0 n
h 0 0 n
t 0 0 w
r 1 0 w
r 0 0 n
r 0 0 e
t 0 0 w
h 1 0 e
t 0 0 w
r 0 0 e
r 1 0 w
t 1 0 e
f 0 0 e
f 0 0 e
t 0 0 n
f 0 0 s
t 0 0 s
f 1 0 n
75 7

3 6
30
r 0 0 n
h 0 4 e
t 2 0 w
t 2 1 e
r 0 2 e
h 0 3 w
f 1 1 s
r 0 1 s
t 2 2 e
t 2 3 w
h 2 0 e
t 1 2 w
r 1 4 e
f 1 3 e
t 2 0 e
t 2 2 w
r 0 5 w
f 1 5 e
r 1 1 e
t 0 5 s
h 1 2 n
r 0 1 w
f 2 1 e
h 0 1 s
f 2 5 s
h 2 1 e
t 1 3 w
h 1 2 s
t 0 2 s
r 0 0 e
49 10

4 3
29
r 3 2 n
t 0 0 n
t 0 2 w
t 0 2 e
h 3 0 n
r 3 0 w
f 2 2 w
h 3 0 w
t 3 1 s
r 3 0 n
f 0 1 n
h 0 0 e
h 0 0 e
h 0 0 n
t 2 1 n
h 0 0 n
f 2 2 s
r 1 1 e
f 2 0 e
h 1 0 s
h 1 0 s
h 0 0 s
r 1 2 w
h 2 0 e
r 3 2 n
h 0 1 e
f 3 1 e
r 0 2 s
f 3 1 e
11 3

2 8
34
r 0 3 e
t 1 7 s
f 1 3 w
t 1 3 n
f 1 4 s
r 0 4 s
h 1 6 n
r 0 6 s
f 1 7 w
f 1 0 e
r 1 1 s
r 0 4 e
f 1 4 s
f 1 6 n
t 0 5 s
f 1 3 e
r 1 2 e
h 0 0 e
f 1 3 n
t 0 6 n
f 0 4 e
t 1 2 e
t 0 0 w
f 1 7 w
f 0 6 s
h 0 0 s
h 0 7 w
t 0 6 n
h 1 3 e
f 0 7 n
t 0 0 s
h 0 3 w
h 1 3 n
f 1 2 s
61 5

8 5
23
t 0 1 w
h 7 0 w
t 0 3 n
r 0 3 w
h 5 0 e
r 2 3 s
r 0 2 w
h 6 2 e
t 7 0 e
f 3 3 n
h 2 3 s
r 6 1 s
r 6 0 e
r 7 3 n
f 4 2 s
f 6 2 e
h 6 4 e
t 4 0 e
h 5 2 s
t 4 1 e
h 1 2 n
r 7 2 e
t 2 3 n
56 43

10 9
25
h 4 4 w
h 1 5 n
h 0 0 e
t 1 2 e
f 6 6 s
h 9 2 s
t 1 5 w
t 0 5 w
h 1 0 n
t 4 1 w
r 4 0 s
f 8 6 n
r 8 8 n
t 8 4 w
r 7 5 e
f 2 2 w
r 8 7 e
h 1 3 n
r 3 1 n
h 2 7 s
t 1 6 w
h 7 3 s
f 5 4 n
t 1 8 e
h 0 3 s
22 34

10 2
9
r 5 0 e
r 5 1 w
f 7 0 n
t 9 0 n
t 3 1 e
r 8 0 s
h 8 1 e
h 4 0 s
r 2 1 w
75 21

10 7
15
h 7 3 n
h 5 5 e
h 2 6 w
h 6 5 s
t 7 4 w
t 1 2 n
f 7 5 w
f 3 3 e
t 8 4 n
t 7 5 n
h 7 1 s
t 8 6 e
h 2 1 s
r 3 2 s
f 5 4 w
26 7

9 9
29
t 1 8 s
f 7 0 s
f 1 2 w
t 0 1 e
f 7 5 e
t 6 0 e
f 1 5 s
h 4 2 s
r 6 2 e
t 1 7 s
t 0 6 n
t 0 0 s
r 3 4 n
h 2 8 w
r 7 1 w
r 3 4 s
f 5 7 e
t 4 5 w
h 3 1 w
f 7 8 e
h 4 0 w
f 1 6 n
r 8 8 e
r 7 5 w
t 6 2 s
f 6 7 w
t 0 2 n
h 1 2 n
h 0 0 s
66 25

6 6
1
t 0 4 e
17 14

7 2
4
r 3 1 e
f 2 0 s
f 0 0 e
f 5 1 w
10 48

2 7
25
h 1 5 w
f 1 4 s
r 0 0 e
r 0 4 w
f 1 1 n
f 0 4 n
h 0 1 e
f 0 5 w
h 0 5 w
h 0 0 w
r 0 6 w
t 0 0 e
r 0 2 n
t 1 6 w
f 1 3 w
h 1 0 e
r 0 0 w
f 0 1 w
f 1 6 w
r 0 3 e
t 0 1 e
t 0 0 e
h 1 6 n
r 1 6 n
h 0 5 w
15 38

2 1
10
f 1 0 n
h 0 0 e
h 1 0 s
t 1 0 w
t 0 0 e
f 1 0 n
r 0 0 n
h 1 0 n
h 1 0 e
f 0 0 s
49 31
