12

31 45
36
f 1 42 s
h 11 37 s
h 14 15 w
f 26 2 s
t 14 20 w
h 0 6 e
f 7 44 n
h 21 5 n
t 2 20 n
h 5 2 w
r 24 41 e
f 22 31 w
r 18 9 e
f 24 20 w
f 27 21 n
h 15 29 n
r 29 44 e
f 27 42 n
h 27 32 n
r 2 11 w
f 4 24 n
t 14 24 e
t 28 41 w
h 22 41 s
f 22 0 s
h 7 21 s
r 16 26 e
f 14 10 s
r 12 6 e
r 23 43 s
f 9 19 n
f 20 33 w
f 13 42 s
h 19 12 s
h 23 7 w
r 13 26 e
1522 198

7 1
21
h 1 0 w
h 5 0 s
r 2 0 n
t 6 0 w
r 6 0 w
f 4 0 n
h 0 0 e
h 5 0 s
t 4 0 s
f 5 0 n
h 6 0 n
h 4 0 n
f 3 0 w
h 1 0 n
t 4 0 n
h 1 0 n
t 2 0 e
t 4 0 w
r 0 0 n
t 5 0 e
r 6 0 w
1814 74

36 38
38
t 11 20 s
r 30 2 w
t 24 6 n
h 29 36 s
r 35 15 n
r 32 16 e
f 23 24 s
f 27 32 e
t 24 18 e
t 31 9 n
t 12 15 w
r 34 35 w
t 3 26 n
r 23 31 s
f 13 4 w
r 28 6 s
h 8 22 s
t 22 13 n
r 5 1 n
t 9 15 n
f 18 6 e
t 16 30 w
f 28 15 w
r 3 11 n
h 0 35 n
r 24 18 n
f 11 30 n
t 25 28 e
h 28 29 e
f 4 6 w
r 13 36 n
f 10 2 e
t 18 10 e
t 20 21 s
f 21 2 w
f 18 15 n
t 34 31 n
f 16 37 s
1023 192

28 40
40
t 12 0 n
f 19 5 s
r 17 14 s
f 22 2 n
r 11 23 s
r 24 22 w
t 26 31 w
h 13 5 w
h 24 17 s
h 24 9 n
f 8 0 n
r 13 17 w
t 10 28 n
h 5 20 e
h 2 2 e
f 4 15 w
t 14 8 s
h 23 31 n
r 3 38 n
h 13 32 e
r 4 4 e
t 25 25 e
h 2 23 w
h 16 7 s
t 24 20 n
r 24 1 n
f 11 33 s
r 13 3 w
h 6 19 s
t 17 20 e
f 24 19 s
t 19 20 w
h 13 23 s
h 6 37 s
h 21 38 s
r 27 22 w
r 21 19 w
t 2 38 n
r 9 20 w
r 12 8 s
1479 179

13 2
20
f 3 1 w
f 12 0 e
r 9 0 e
t 7 0 s
h 10 1 s
r 0 0 w
f 9 0 s
r 7 0 w
h 6 1 e
r 3 0 w
h 4 0 e
h 1 1 s
r 1 1 n
t 4 1 s
f 7 0 n
r 0 0 s
r 1 0 w
r 10 0 w
t 6 0 w
h 9 1 s
1688 126

7 44
30
r 1 21 n
f 5 35 e
h 3 39 n
t 0 19 w
r 1 6 s
f 5 20 s
f 2 28 n
t 2 4 s
t 4 26 n
h 2 11 e
t 1 18 s
r 3 12 w
r 4 38 e
h 4 43 s
r 4 7 s
f 4 19 e
t 1 0 s
h 3 2 s
t 1 27 e
f 4 39 n
t 1 36 e
h 5 19 w
f 3 1 s
r 1 30 w
r 2 32 n
f 2 18 n
t 3 12 e
h 6 31 w
t 1 10 s
f 2 27 e
1784 193

13 37
38
h 10 9 s
h 7 7 w
h 9 34 w
t 12 30 e
r 8 12 s
t 11 34 s
f 11 21 w
r 6 0 s
r 5 4 w
f 4 16 w
h 1 5 s
h 0 4 s
f 8 22 s
h 11 26 w
r 2 31 n
f 1 26 s
r 1 1 w
t 4 16 n
h 2 11 s
f 6 24 n
f 8 4 s
f 4 5 w
f 11 33 s
h 7 18 w
t 9 22 s
r 8 0 s
h 9 24 s
r 12 21 w
t 5 35 w
f 11 4 e
f 3 31 s
f 5 23 e
f 12 16 e
h 4 16 s
h 0 14 n
r 3 8 s
t 0 4 w
r 11 34 e
1031 168

1 14
24
f 0 1 e
t 0 5 w
h 0 10 e
t 0 1 n
h 0 7 w
t 0 4 s
t 0 2 s
f 0 13 n
f 0 10 e
h 0 4 n
h 0 3 n
t 0 7 s
t 0 4 e
h 0 13 s
f 0 0 n
h 0 5 e
f 0 12 w
h 0 12 n
f 0 9 e
t 0 3 n
h 0 1 e
t 0 6 w
h 0 1 s
r 0 2 w
1530 185

40 24
34
h 8 0 e
f 26 4 w
h 20 16 e
f 24 2 n
h 0 7 w
t 1 13 n
h 13 16 e
r 26 4 e
r 35 8 e
r 39 6 n
f 27 1 n
f 6 17 w
t 31 3 n
h 23 6 s
h 21 2 n
f 38 12 s
h 37 17 w
f 24 8 e
f 14 9 s
r 24 19 e
f 32 5 n
t 8 4 w
t 7 17 w
t 16 1 e
h 17 4 e
h 18 3 w
f 33 3 e
h 37 2 w
r 30 4 n
h 16 2 n
r 31 14 s
t 35 19 n
t 24 16 w
h 29 1 n
1074 151

21 42
24
t 16 30 n
h 8 26 e
f 4 10 s
r 12 24 n
t 8 15 s
t 17 27 n
f 4 15 e
t 0 20 e
r 0 8 n
r 8 23 w
h 19 20 s
h 19 37 w
f 20 20 s
r 11 16 n
r 9 12 n
r 19 38 n
f 11 40 e
r 2 8 e
f 5 31 s
t 4 1 s
r 14 36 n
r 12 24 w
r 14 14 s
r 14 9 w
1396 138

18 10
38
t 13 1 s
f 7 9 e
h 3 8 w
r 10 9 n
f 13 3 w
t 9 2 n
h 15 4 e
f 5 0 e
t 17 1 s
h 16 6 n
h 0 2 e
f 6 4 n
f 6 4 s
f 13 7 w
t 14 1 n
h 10 5 e
h 11 8 n
t 11 0 s
t 15 0 s
f 13 5 e
r 14 1 w
h 16 6 s
h 6 5 s
t 7 3 n
f 6 8 e
f 2 3 w
r 14 2 s
t 0 5 n
f 7 5 w
t 2 7 n
r 12 1 n
r 17 4 e
h 7 6 s
h 12 8 n
h 6 0 n
h 9 7 n
h 9 9 w
h 8 2 w
1072 184

6 11
30
t 3 8 w
t 0 4 w
r 2 1 s
t 2 2 e
t 5 7 e
r 2 10 w
r 4 6 s
r 4 3 e
f 5 6 s
r 5 1 e
r 1 7 s
h 4 6 s
h 2 5 e
f 4 10 n
t 1 2 s
f 5 7 s
h 4 5 e
f 5 9 s
f 0 7 n
h 3 4 n
r 5 10 e
h 2 4 w
h 2 5 n
f 1 6 n
r 2 1 w
f 3 8 w
t 2 1 e
h 0 0 s
t 2 0 e
h 5 2 s
1451 161
