*** Darwin 3x35 ***
Turn = 0.
  01234567890123456789012345678901234
0 .................................f.
1 ...................................
2 ...................................

Turn = 6.
  01234567890123456789012345678901234
0 .................................f.
1 ...................................
2 ...................................

Turn = 12.
  01234567890123456789012345678901234
0 .................................f.
1 ...................................
2 ...................................

Turn = 18.
  01234567890123456789012345678901234
0 .................................f.
1 ...................................
2 ...................................

Turn = 24.
  01234567890123456789012345678901234
0 .................................f.
1 ...................................
2 ...................................

Turn = 30.
  01234567890123456789012345678901234
0 .................................f.
1 ...................................
2 ...................................

Turn = 36.
  01234567890123456789012345678901234
0 .................................f.
1 ...................................
2 ...................................

Turn = 42.
  01234567890123456789012345678901234
0 .................................f.
1 ...................................
2 ...................................

*** Darwin 4x16 ***
Turn = 0.
  0123456789012345
0 hrt.....fh.htt..
1 r.f.........t...
2 hf.....t...tt.rh
3 ..t.hf...f..rrrt

Turn = 10.
  0123456789012345
0 r.....rrfh.tttt.
1 ..r...r.....tr..
2 r.r....t...ttr..
3 ..rt.f...fr...rr

Turn = 20.
  0123456789012345
0 ..rr.rr..rrrrrt.
1 rr...r....rrt.t.
2 ...r...rr.r....r
3 .......rr.r....r

*** Darwin 5x22 ***
Turn = 0.
  0123456789012345678901
0 ....h..f......t.t.....
1 h...f.h.........r...r.
2 ............t.........
3 ...............f..h...
4 ....rr.r.....tr.......

Turn = 1.
  0123456789012345678901
0 .....h.f......t.t.....
1 h...f............r...r
2 ......h.....t.........
3 .......r......rf.h....
4 ....rr.......t........

Turn = 2.
  0123456789012345678901
0 ......hf......t.t.....
1 h...f.............r..r
2 .......r....t.r.......
3 ......h........fh.....
4 ...r..r......t........

*** Darwin 5x16 ***
Turn = 0.
  0123456789012345
0 ........h...f...
1 .......h........
2 ................
3 ......h.........
4 .h..............

Turn = 6.
  0123456789012345
0 .h......h...f...
1 .............h..
2 ................
3 h...............
4 ................

Turn = 12.
  0123456789012345
0 .h......h...f...
1 ...............h
2 ................
3 h...............
4 ................

Turn = 18.
  0123456789012345
0 .h......h...f...
1 ...............h
2 ................
3 h...............
4 ................

Turn = 24.
  0123456789012345
0 .h......h...f...
1 ...............h
2 ................
3 h...............
4 ................

Turn = 30.
  0123456789012345
0 .h......h...f...
1 ...............h
2 ................
3 h...............
4 ................

Turn = 36.
  0123456789012345
0 .h......h...f...
1 ...............h
2 ................
3 h...............
4 ................

Turn = 42.
  0123456789012345
0 .h......h...f...
1 ...............h
2 ................
3 h...............
4 ................

*** Darwin 7x33 ***
Turn = 0.
  012345678901234567890123456789012
0 f.....h..........................
1 ...............r.....r...........
2 r.............ff............t....
3 ...................f.............
4 .........h......t...t..........h.
5 .......t.............f...f...f...
6 ................f.........f..r...

Turn = 10.
  012345678901234567890123456789012
0 f...............h................
1 .........................r.......
2 ..............ff.........r..t....
3 ...................f.............
4 ...............tt...tt..........h
5 .......t...................r.f...
6 .....r..........f.........fr.....

*** Darwin 15x13 ***
Turn = 0.
  0123456789012
0 .............
1 .............
2 .............
3 .............
4 .t...........
5 .............
6 .............
7 .............
8 .............
9 .............
0 .............
1 .............
2 .............
3 .............
4 .............

Turn = 9.
  0123456789012
0 .............
1 .............
2 .............
3 .............
4 .t...........
5 .............
6 .............
7 .............
8 .............
9 .............
0 .............
1 .............
2 .............
3 .............
4 .............

*** Darwin 24x5 ***
Turn = 0.
  01234
0 .....
1 .....
2 .....
3 .....
4 ....h
5 .....
6 .....
7 .....
8 ....t
9 .....
0 .....
1 .....
2 .....
3 .....
4 ...r.
5 h....
6 .....
7 .....
8 r....
9 .....
0 .....
1 .....
2 .....
3 .....

Turn = 8.
  01234
0 ....h
1 .....
2 .....
3 .....
4 .....
5 .....
6 .....
7 .....
8 ....t
9 .....
0 .....
1 .....
2 .....
3 .....
4 .....
5 h....
6 .....
7 ..r..
8 .....
9 ....r
0 .....
1 .....
2 .....
3 .....

Turn = 16.
  01234
0 ....h
1 .....
2 .....
3 .....
4 .....
5 .....
6 .....
7 .....
8 ....t
9 .....
0 .....
1 .....
2 .....
3 .....
4 .....
5 .r...
6 ..r..
7 .....
8 .....
9 .....
0 .....
1 .....
2 .....
3 ...r.

Turn = 24.
  01234
0 ....h
1 .....
2 .....
3 .....
4 .....
5 .....
6 .....
7 .....
8 ....t
9 .....
0 .....
1 .....
2 .....
3 ....r
4 .....
5 ....r
6 .....
7 .....
8 .....
9 .....
0 .....
1 .....
2 .....
3 ...r.

Turn = 32.
  01234
0 ....h
1 .....
2 .....
3 .....
4 .....
5 .....
6 ....r
7 ....r
8 .r...
9 .....
0 .....
1 .....
2 .....
3 .....
4 .....
5 .....
6 .....
7 .....
8 .....
9 .....
0 .....
1 .....
2 .....
3 r....

Turn = 40.
  01234
0 ....r
1 ....r
2 ....r
3 .....
4 .....
5 .....
6 .....
7 .....
8 .....
9 .....
0 .....
1 .....
2 .....
3 .....
4 r....
5 .....
6 .....
7 .....
8 .....
9 .....
0 .....
1 .....
2 .....
3 ....r

*** Darwin 25x28 ***
Turn = 0.
  0123456789012345678901234567
0 .....................t......
1 .........................f..
2 t..r........................
3 .f...f......................
4 .........h..................
5 ht....t.....................
6 ...........r................
7 ....f.......f...............
8 ............................
9 ............................
0 ............................
1 ..........................h.
2 ............................
3 ..................h.........
4 ..............r.............
5 .......................t.t..
6 ............................
7 ...........r........h.hf....
8 .....................t......
9 ............................
0 ........................r..t
1 ...................f.......h
2 ..............h...r.........
3 ..................h..t......
4 ..............t..h..........

Turn = 10.
  0123456789012345678901234567
0 .....................t......
1 .........................fh.
2 tt..........................
3 .t...f............h.........
4 ......t.....................
5 .t....t.....................
6 ............................
7 ....f.......f.......h.......
8 ............................
9 ............................
0 ............................
1 ............................
2 ..............h.............
3 ............................
4 ........................r...
5 h................h.....t.t..
6 ...........r................
7 .......................f....
8 .....................tt.....
9 ............................
0 ..............r............t
1 ...................f........
2 ........r...................
3 ........h............t......
4 .........r....t............h

*** Darwin 2x28 ***
Turn = 0.
  0123456789012345678901234567
0 ..r..t..tf.rrr.t.r.......h..
1 .tf..h.h.t....f......h.t..rt

Turn = 4.
  0123456789012345678901234567
0 ....rt..trr...rr............
1 .tt..tt..t.r..fr......tt.ttt

Turn = 8.
  0123456789012345678901234567
0 .....rr.ttr.rrrr............
1 .tt.rr.r.....r........tt.ttt

Turn = 12.
  0123456789012345678901234567
0 ...r.rr.trr..r...r.r........
1 .ttr.r....r......r....tt.ttt

Turn = 16.
  0123456789012345678901234567
0 rr.r...r.........r...r.r....
1 .trrr...r..r..r......rtt.ttt

Turn = 20.
  0123456789012345678901234567
0 .trrr...............rr..rrt.
1 rtrrr..........r..r....r.rtt

*** Darwin 6x9 ***
Turn = 0.
  012345678
0 .....h..r
1 .t......t
2 ....t..tf
3 .t......r
4 ...r...f.
5 ...r.....

Turn = 7.
  012345678
0 ....r....
1 .t......t
2 ....tt.tt
3 .t....r..
4 ......r.r
5 .......r.

Turn = 14.
  012345678
0 ...r.....
1 tt......t
2 ....tt.tt
3 .t......t
4 r.......t
5 .........

*** Darwin 35x29 ***
Turn = 0.
  01234567890123456789012345678
0 .............................
1 ...h.........................
2 .............................
3 .............................
4 .............................
5 .............................
6 .............................
7 .............................
8 .............................
9 .............................
0 .............................
1 .............................
2 .............................
3 .............................
4 .............................
5 .............................
6 .............................
7 .............................
8 .............................
9 .............................
0 .............................
1 ........................r....
2 .............................
3 .............................
4 .............................
5 .............................
6 .............................
7 .............................
8 .............................
9 .............................
0 .............................
1 .............................
2 .................h...........
3 .............................
4 .............................

Turn = 8.
  01234567890123456789012345678
0 .............................
1 h............................
2 .............................
3 .............................
4 .............................
5 .............................
6 .............................
7 .............................
8 .............................
9 .............................
0 .............................
1 .............................
2 .............................
3 .............................
4 .............................
5 .............................
6 .............................
7 .............................
8 .............................
9 .............................
0 .............................
1 .............................
2 .............................
3 .............................
4 .............................
5 .............................
6 .............................
7 .............................
8 .............................
9 ........................r....
0 .............................
1 .............................
2 .........h...................
3 .............................
4 .............................

Turn = 16.
  01234567890123456789012345678
0 .............................
1 h............................
2 .............................
3 .............................
4 .............................
5 .............................
6 .............................
7 .............................
8 .............................
9 .............................
0 .............................
1 .............................
2 .............................
3 .............................
4 .............................
5 .............................
6 .............................
7 .............................
8 .............................
9 .............................
0 .............................
1 .............................
2 .............................
3 .............................
4 .............................
5 .............................
6 .............................
7 .............................
8 .............................
9 .............................
0 .............................
1 .............................
2 .h...........................
3 .............................
4 ......................r......

Turn = 24.
  01234567890123456789012345678
0 .............................
1 h............................
2 .............................
3 .............................
4 .............................
5 .............................
6 .............................
7 .............................
8 .............................
9 .............................
0 .............................
1 .............................
2 .............................
3 .............................
4 .............................
5 .............................
6 .............................
7 .............................
8 .............................
9 .............................
0 .............................
1 .............................
2 .............................
3 .............................
4 .............................
5 .............................
6 .............................
7 .............................
8 .............................
9 .............................
0 .............................
1 .............................
2 h............................
3 .............................
4 ..............r..............

Turn = 32.
  01234567890123456789012345678
0 .............................
1 h............................
2 .............................
3 .............................
4 .............................
5 .............................
6 .............................
7 .............................
8 .............................
9 .............................
0 .............................
1 .............................
2 .............................
3 .............................
4 .............................
5 .............................
6 .............................
7 .............................
8 .............................
9 .............................
0 .............................
1 .............................
2 .............................
3 .............................
4 .............................
5 .............................
6 .............................
7 .............................
8 .............................
9 .............................
0 .............................
1 .............................
2 h............................
3 .............................
4 ......r......................

Turn = 40.
  01234567890123456789012345678
0 .............................
1 h............................
2 .............................
3 .............................
4 .............................
5 .............................
6 .............................
7 .............................
8 .............................
9 .............................
0 .............................
1 .............................
2 .............................
3 .............................
4 .............................
5 .............................
6 .............................
7 .............................
8 .............................
9 .............................
0 .............................
1 .............................
2 .............................
3 .............................
4 .............................
5 .............................
6 .............................
7 .............................
8 .............................
9 .............................
0 .............................
1 .............................
2 h............................
3 .............................
4 r............................

*** Darwin 13x32 ***
Turn = 0.
  01234567890123456789012345678901
0 ..........................h.....
1 .............................h..
2 ..t........r.................f..
3 .............r...............t..
4 ................................
5 .h..............................
6 ............................h...
7 .....................f.........f
8 ................................
9 .................t..........h...
0 .....t.r........................
1 ................................
2 ................................

Turn = 3.
  01234567890123456789012345678901
0 .............................h..
1 ...............................h
2 .ht.....r....................t..
3 ..........r..................t..
4 ................................
5 ................................
6 ...............................h
7 .......r.............f.........f
8 ................................
9 .................t.............h
0 .....t..........................
1 ................................
2 ................................

Turn = 6.
  01234567890123456789012345678901
0 .h.............................h
1 ...............................h
2 ..t..r.......................t..
3 .......r.....................t..
4 .......r........................
5 ................................
6 ...............................h
7 .....................f.........f
8 ................................
9 .................t.............h
0 .....t..........................
1 ................................
2 ................................

Turn = 9.
  01234567890123456789012345678901
0 .h.............................h
1 .......r.......................h
2 ..rr.........................t..
3 ....r........................t..
4 ................................
5 ................................
6 ...............................h
7 .....................f.........f
8 ................................
9 .................t.............h
0 .....t..........................
1 ................................
2 ................................

Turn = 12.
  01234567890123456789012345678901
0 .h......r......................h
1 ...............................h
2 rr...........................t..
3 .r...........................t..
4 ................................
5 ................................
6 ...............................h
7 .....................f.........f
8 ................................
9 .................t.............h
0 .....t..........................
1 ................................
2 ................................

Turn = 15.
  01234567890123456789012345678901
0 .r.........r...................h
1 .r.............................h
2 .r...........................t..
3 .............................t..
4 ................................
5 r...............................
6 ...............................h
7 .....................f.........f
8 ................................
9 .................t.............h
0 .....t..........................
1 ................................
2 ................................

Turn = 18.
  01234567890123456789012345678901
0 ....r.........r................h
1 ....r..........................h
2 .............................t..
3 r............................t..
4 ................................
5 ................................
6 ...............................h
7 .....................f.........f
8 r...............................
9 .................t.............h
0 .....t..........................
1 ................................
2 ................................

Turn = 21.
  01234567890123456789012345678901
0 .......r.........r.............h
1 .......r.......................h
2 .............................t..
3 .............................t..
4 ................................
5 ................................
6 r..............................h
7 .....................f.........f
8 ................................
9 .................t.............h
0 .....t..........................
1 r...............................
2 ................................

Turn = 24.
  01234567890123456789012345678901
0 ..........r.........r..........h
1 ..........r....................h
2 .............................t..
3 .............................t..
4 ................................
5 ................................
6 ...............................h
7 .....................f.........f
8 ................................
9 r................t.............h
0 .....t..........................
1 ................................
2 r...............................

Turn = 27.
  01234567890123456789012345678901
0 .............r.........r.......h
1 .............r.................h
2 .............................t..
3 .............................t..
4 ................................
5 ................................
6 ...............................h
7 .....................f.........f
8 ................................
9 .................t.............h
0 .r...t..........................
1 .r..............................
2 ................................

*** Darwin 14x2 ***
Turn = 0.
  01
0 f.
1 tf
2 t.
3 .r
4 ..
5 ..
6 f.
7 ft
8 .h
9 .h
0 h.
1 .f
2 hh
3 .t

Turn = 9.
  01
0 t.
1 tt
2 .t
3 ..
4 ..
5 ..
6 tt
7 tt
8 .t
9 ..
0 .h
1 tf
2 t.
3 tt

Turn = 18.
  01
0 t.
1 tt
2 .t
3 ..
4 ..
5 ..
6 tt
7 tt
8 .t
9 ..
0 .t
1 tt
2 t.
3 tt

Turn = 27.
  01
0 t.
1 tt
2 .t
3 ..
4 ..
5 ..
6 tt
7 tt
8 .t
9 ..
0 .t
1 tt
2 t.
3 tt

*** Darwin 14x2 ***
Turn = 0.
  01
0 rf
1 t.
2 t.
3 .r
4 .f
5 f.
6 ..
7 ft
8 ..
9 .h
0 hh
1 .f
2 hh
3 .t

Turn = 9.
  01
0 ..
1 t.
2 tt
3 t.
4 ..
5 rr
6 ..
7 tt
8 r.
9 .r
0 .r
1 tr
2 t.
3 tt

Turn = 18.
  01
0 ..
1 t.
2 tt
3 t.
4 r.
5 r.
6 .t
7 .t
8 ..
9 .r
0 .r
1 rr
2 tr
3 tt

Turn = 27.
  01
0 ..
1 t.
2 rt
3 tt
4 .r
5 ..
6 .r
7 rr
8 rr
9 ..
0 ..
1 r.
2 rr
3 rr
