12

68 27
140
t 27 25 e
h 43 25 n
h 9 0 e
t 46 6 s
h 47 2 s
f 42 23 n
h 10 23 e
t 48 0 s
r 25 13 s
r 48 14 e
t 43 20 w
f 33 8 e
h 19 26 e
t 50 9 e
t 1 25 s
h 58 16 e
t 16 24 n
r 35 7 n
h 44 13 s
t 34 10 n
r 35 12 e
h 31 8 n
r 19 13 w
t 26 15 n
f 23 7 n
r 57 9 n
r 36 13 w
f 39 16 w
h 56 22 n
f 20 22 n
r 18 23 n
f 23 15 e
f 58 25 w
t 67 24 e
f 66 19 s
f 2 12 s
t 52 7 n
t 1 6 n
r 2 23 n
h 9 10 n
f 27 8 n
f 54 23 w
f 37 16 n
t 5 17 e
f 6 20 n
r 37 15 s
t 8 10 n
h 62 3 s
r 14 15 e
h 67 9 n
r 24 7 s
t 22 19 e
t 11 3 w
r 66 18 s
t 14 6 e
f 46 11 n
r 67 13 w
r 31 3 n
f 22 19 s
r 51 0 s
t 41 2 e
f 17 21 w
t 26 18 e
h 64 19 n
f 46 6 n
h 34 19 s
h 59 21 s
r 32 21 e
f 37 11 w
t 54 20 n
r 36 6 w
t 4 7 s
h 66 16 n
r 57 10 s
h 2 11 e
f 45 14 n
t 63 21 e
f 46 21 s
t 28 16 w
h 24 2 w
t 15 12 e
f 25 19 w
f 40 19 s
f 52 16 e
r 18 22 w
f 13 10 w
h 52 17 w
f 39 7 e
r 8 26 e
r 16 21 e
r 3 22 n
h 45 11 n
t 31 2 w
h 50 4 n
h 3 8 s
r 23 12 n
h 40 23 n
r 50 18 n
r 10 13 w
t 40 21 w
f 6 23 s
r 61 24 n
t 66 19 n
t 28 17 n
f 29 25 w
t 8 16 s
t 35 10 w
r 66 12 w
f 18 8 e
f 39 14 e
h 21 25 e
r 10 3 e
f 55 20 n
t 33 17 s
r 38 26 s
r 30 2 n
t 57 8 n
t 18 13 w
f 37 2 n
h 5 23 e
f 5 5 n
h 18 12 s
h 67 24 n
f 20 16 s
h 34 8 s
f 56 17 e
r 35 8 w
h 38 16 e
f 57 23 s
t 7 0 w
h 41 20 e
r 24 18 w
t 62 16 n
h 18 12 s
h 34 19 w
t 49 1 n
r 15 21 w
f 19 13 w
r 0 2 n
t 48 16 w
213 45

32 34
41
r 12 22 n
h 10 5 n
h 13 25 w
f 30 27 e
r 7 7 w
f 5 17 w
t 30 12 n
h 31 29 s
r 20 15 e
t 25 33 n
t 24 7 s
f 23 27 e
f 2 2 w
r 31 29 w
h 24 5 e
r 21 26 e
f 31 33 e
h 21 16 e
f 30 18 s
r 7 12 w
r 6 4 n
t 19 31 s
r 21 2 e
r 25 6 s
t 0 12 s
r 10 27 s
f 17 32 s
f 31 28 n
r 6 9 w
r 20 24 n
f 10 23 n
f 27 9 e
h 8 19 e
h 9 17 w
r 27 7 n
f 15 10 w
f 14 11 s
r 21 19 e
r 10 19 w
h 6 32 e
h 18 29 n
1661 24

74 60
55
r 5 2 s
r 68 41 s
r 12 38 w
f 8 3 n
h 37 52 e
r 12 12 s
f 24 2 s
r 34 36 n
r 37 10 s
f 23 46 n
r 17 14 w
t 29 42 s
f 13 50 n
h 60 23 n
r 41 16 s
f 36 37 s
t 28 36 e
h 27 17 e
f 70 30 n
h 60 32 s
t 66 57 e
r 16 18 s
t 24 8 w
f 72 2 e
h 24 53 e
h 52 53 w
t 62 16 s
f 2 10 e
r 28 20 n
t 8 43 e
t 38 16 n
t 61 22 n
t 73 57 s
t 68 31 n
t 11 44 n
r 55 46 e
h 47 6 s
r 14 50 e
t 43 7 w
r 28 13 e
t 58 29 s
r 18 54 e
r 46 52 w
h 27 27 s
r 55 23 w
h 43 44 w
t 5 38 e
h 19 24 w
r 36 22 w
f 23 43 n
f 40 33 n
f 11 9 n
f 46 28 w
f 8 17 w
f 29 31 s
1264 182

51 6
37
t 20 4 w
f 23 5 n
t 21 4 e
t 3 0 n
r 45 5 s
t 42 0 s
f 27 1 s
r 34 1 s
t 18 4 w
t 39 4 s
r 43 5 w
h 6 0 n
h 3 0 s
f 28 4 w
t 9 0 s
f 7 1 w
h 41 3 w
r 21 1 n
h 34 1 s
t 22 4 e
f 23 4 e
f 34 2 n
h 45 5 n
h 21 2 e
h 2 5 e
r 44 2 e
h 25 2 n
r 4 0 s
r 7 1 s
t 19 3 n
f 16 2 e
h 48 2 w
h 9 0 n
r 0 0 e
r 10 0 s
f 18 5 w
r 9 2 w
1424 21

58 56
180
h 11 8 w
t 18 51 w
t 19 32 w
r 1 52 s
h 25 54 s
h 28 18 e
f 5 36 n
h 51 46 w
h 35 47 s
f 45 11 w
r 5 35 e
f 37 36 e
r 6 13 n
r 43 14 e
h 41 45 w
r 57 16 s
h 0 44 w
h 10 43 s
f 55 7 e
h 44 15 w
t 30 9 e
f 52 27 e
h 24 25 s
t 24 53 e
f 13 2 w
t 12 48 s
f 34 12 e
h 6 19 n
r 27 0 n
f 29 47 s
f 4 38 n
t 53 24 e
f 55 28 s
h 52 10 e
f 5 51 w
f 11 14 s
r 3 12 s
f 12 12 e
t 8 55 n
h 53 45 e
f 37 19 w
h 39 20 w
h 52 41 w
f 50 43 n
h 8 33 n
h 50 28 s
r 1 54 n
h 20 6 n
t 16 13 e
t 7 26 w
f 2 45 n
h 14 40 w
f 40 16 e
f 49 30 n
h 44 50 n
h 8 40 n
h 15 22 w
h 21 26 s
f 34 41 s
t 50 45 w
t 28 26 w
r 29 36 e
t 44 4 e
t 28 0 w
r 51 41 s
h 49 42 w
t 41 31 e
f 32 32 e
f 32 12 e
h 48 43 e
h 48 16 e
r 13 33 s
f 27 21 s
t 35 17 n
r 2 10 s
f 55 45 n
h 43 17 e
h 25 1 n
r 56 39 s
h 1 12 s
t 1 28 s
h 8 53 s
h 44 6 s
f 23 25 s
r 10 6 w
t 32 24 s
f 2 20 w
h 55 55 n
r 17 42 w
f 35 49 w
f 30 11 e
h 27 43 e
f 0 39 n
h 4 29 s
h 35 15 e
t 21 9 e
f 53 1 e
h 37 49 w
h 15 11 e
f 12 34 n
h 46 30 n
h 4 51 s
h 1 42 n
h 28 0 e
h 17 3 s
r 49 15 e
f 0 49 n
h 40 55 w
h 29 8 n
h 31 34 e
f 41 41 e
h 52 25 s
f 29 11 w
r 6 16 e
f 6 7 w
t 35 2 e
t 3 23 s
t 25 13 e
h 23 3 e
r 39 47 w
h 12 52 e
f 14 34 e
r 28 30 s
t 47 35 e
h 11 4 e
h 49 42 e
t 11 16 s
r 39 48 w
t 24 18 s
t 25 52 n
t 56 27 n
r 56 22 n
t 27 22 w
h 27 38 n
h 11 40 n
f 40 50 s
f 35 32 e
h 28 22 w
f 18 5 s
t 53 38 n
f 33 10 n
f 53 33 s
r 38 4 n
t 54 18 e
f 25 11 n
t 24 30 w
f 9 19 n
f 33 21 w
h 45 54 n
f 12 48 w
h 37 19 n
h 21 44 w
t 14 39 n
t 13 2 s
t 15 31 w
h 53 18 s
r 36 14 e
t 13 9 s
f 27 43 s
h 4 11 s
f 20 3 w
f 14 13 e
t 5 40 w
h 22 9 s
h 30 38 e
f 30 47 w
f 47 10 w
r 34 44 e
r 44 39 e
h 31 11 s
h 21 17 e
f 12 27 e
r 51 3 e
t 40 0 n
r 6 42 s
r 36 52 e
r 12 1 w
r 1 13 s
h 23 52 n
h 2 51 n
1835 163

15 30
194
f 3 19 s
h 7 28 w
f 6 14 w
h 8 12 e
h 0 10 w
h 11 0 e
f 0 29 e
f 2 12 n
f 3 18 e
r 2 6 e
h 0 26 s
f 1 1 n
h 2 8 n
t 5 4 s
f 3 6 w
f 10 25 n
t 9 1 n
r 5 1 s
h 13 1 w
r 6 10 w
t 4 17 e
h 12 27 w
f 6 2 e
h 9 5 n
t 9 25 n
t 5 14 n
f 2 27 s
r 2 14 n
f 10 2 e
f 1 7 s
r 2 12 e
f 8 29 e
h 14 26 e
r 9 4 s
f 5 25 e
t 4 24 n
t 2 8 n
h 5 18 s
h 10 19 e
t 14 22 n
t 10 3 e
f 12 27 s
r 7 10 e
t 9 5 s
h 6 9 s
f 12 13 s
f 7 15 w
f 0 10 e
f 4 8 e
t 4 23 e
h 9 6 n
r 13 18 w
t 11 6 w
t 0 1 w
f 9 29 e
t 11 5 s
r 4 8 e
h 14 25 s
r 8 27 s
t 3 22 w
t 8 6 w
h 5 7 s
t 13 14 w
f 12 29 e
h 2 20 n
r 4 20 e
h 3 24 w
h 2 23 n
h 6 29 s
f 8 20 w
r 7 0 e
t 2 29 n
t 7 17 n
t 7 25 w
h 7 10 s
r 13 21 n
f 1 7 w
f 1 2 e
h 5 13 e
f 2 19 w
t 8 18 w
h 12 22 w
r 1 18 n
h 1 9 s
t 5 0 e
r 2 23 n
h 13 18 e
h 12 29 w
f 1 0 e
h 4 2 n
r 13 0 e
t 2 22 e
r 1 22 w
r 11 28 w
f 4 26 e
r 9 16 s
h 4 25 s
r 6 14 w
f 4 18 n
h 11 4 n
t 11 8 e
f 14 1 e
h 7 25 e
t 12 8 n
h 2 18 s
h 2 23 n
t 10 25 s
r 4 1 s
r 5 12 s
r 4 3 n
f 13 18 e
f 14 3 e
r 8 15 w
h 5 28 w
h 4 27 w
h 4 9 w
h 10 23 w
f 7 11 n
r 0 14 n
h 0 28 s
f 7 27 e
h 13 26 w
r 2 20 w
r 9 3 w
f 2 4 w
t 4 0 e
f 2 1 e
r 9 17 w
f 5 27 e
h 11 18 s
r 13 28 e
h 0 23 w
h 2 23 w
f 3 2 n
t 12 23 w
h 13 20 n
f 9 4 w
f 13 1 e
t 5 2 e
t 7 28 e
t 12 27 s
f 2 8 n
h 6 21 s
t 0 17 s
h 11 17 s
f 0 28 e
h 5 14 n
r 1 23 e
t 4 7 w
h 1 25 e
h 1 19 s
r 0 20 n
t 0 7 e
t 11 20 n
r 0 3 n
f 8 10 s
h 9 11 e
t 1 12 w
f 0 6 s
r 10 13 e
f 12 17 e
f 13 19 w
h 2 2 w
t 2 1 w
r 2 9 e
f 11 12 n
h 11 7 s
t 14 22 s
t 11 23 s
r 13 23 e
f 1 2 e
t 6 25 s
r 8 0 s
f 10 6 w
t 8 27 s
f 7 23 e
r 11 20 e
t 8 28 n
f 3 13 n
r 8 9 e
r 7 8 s
f 1 13 w
h 13 0 e
r 11 22 s
t 12 23 w
t 3 11 e
t 7 18 n
t 14 28 n
t 13 20 w
r 9 7 w
t 4 29 e
r 9 27 n
f 14 5 s
f 2 18 w
2000 152

61 95
3
f 29 19 w
f 20 90 w
h 40 66 w
17 64

10 12
162
f 3 8 s
h 9 1 w
f 0 11 n
t 7 11 s
r 9 0 e
t 5 10 e
h 0 4 n
r 9 5 e
f 2 11 e
h 6 7 s
f 8 7 e
r 2 7 e
t 2 9 w
f 3 7 e
t 0 11 n
f 5 3 n
r 6 6 s
r 9 4 w
t 9 7 n
r 5 11 s
r 9 1 s
t 9 4 s
r 0 6 w
t 6 0 s
t 3 4 e
h 3 4 n
h 0 6 s
t 2 7 w
t 4 10 n
h 4 10 w
r 8 10 n
f 2 2 s
r 7 9 s
t 0 11 s
r 6 6 e
h 5 6 e
t 5 11 s
h 8 9 e
r 5 9 s
r 1 2 n
r 5 7 e
f 3 11 e
f 9 8 n
r 2 2 s
r 3 2 w
t 6 5 e
f 9 0 s
f 8 10 s
f 4 11 s
r 3 8 w
f 3 9 n
r 7 3 n
f 8 7 w
f 4 9 n
h 3 7 s
f 2 5 e
h 1 1 n
r 6 2 n
h 0 11 e
r 6 7 n
h 9 7 n
r 3 10 n
f 3 0 n
h 4 7 n
r 1 11 s
t 9 9 s
t 3 9 w
f 5 7 w
t 8 5 s
f 6 5 s
h 4 1 w
r 4 0 w
r 0 10 n
f 4 4 n
f 1 3 s
r 8 2 s
t 9 3 s
t 6 9 e
h 2 0 n
r 1 9 n
r 8 3 s
h 0 9 s
h 5 2 s
f 7 0 n
f 5 3 s
h 6 8 w
r 6 0 s
h 5 4 w
f 6 10 w
t 7 4 s
h 3 0 w
t 6 9 w
r 3 3 e
h 1 0 w
r 6 2 s
h 7 8 e
h 8 11 n
r 4 4 s
h 5 9 n
f 1 10 e
f 4 8 w
f 1 11 e
f 6 4 e
r 6 7 e
h 7 10 n
h 6 6 w
h 3 3 w
h 2 11 e
r 5 11 w
t 6 11 e
h 5 11 s
t 6 6 s
f 2 7 w
f 1 6 w
r 3 8 n
f 8 7 n
r 0 3 w
h 9 4 s
f 9 5 e
t 8 4 n
f 4 2 n
r 3 4 e
r 9 8 w
r 7 10 e
r 8 10 s
r 5 0 n
r 1 5 n
r 6 11 n
h 3 5 n
r 0 2 n
h 6 8 n
t 6 7 e
t 6 7 s
h 0 5 s
f 3 1 n
h 3 3 n
t 2 6 n
f 9 0 n
r 4 6 w
r 0 11 n
t 3 8 e
t 2 7 e
t 2 11 w
f 8 9 e
h 7 2 n
f 9 7 s
t 5 11 w
t 7 7 n
f 8 9 w
h 3 9 s
h 4 3 w
f 7 6 w
h 4 0 e
f 3 6 w
f 0 9 n
t 4 8 s
r 2 5 s
h 2 6 w
h 2 10 s
f 7 7 e
f 9 10 n
t 2 1 s
739 43

74 44
24
h 22 24 e
t 0 14 w
r 73 10 n
t 57 12 w
f 13 25 w
h 56 22 s
r 16 41 n
h 56 28 w
t 33 23 e
f 9 10 w
h 46 36 w
f 12 19 s
f 69 32 w
t 32 0 w
h 12 16 e
t 64 38 s
t 19 40 s
f 0 15 e
t 1 2 w
t 40 19 e
f 51 26 e
f 39 8 n
h 53 36 n
h 1 34 n
482 63

5 61
192
t 2 45 w
f 0 5 n
r 4 44 e
t 4 39 s
h 0 12 e
h 4 21 n
t 3 46 e
h 3 6 w
f 4 35 n
r 0 59 s
h 0 19 n
h 3 12 e
r 1 59 w
f 4 10 s
t 0 60 e
f 3 9 e
f 2 22 w
t 1 32 e
f 1 50 s
t 4 50 s
h 4 3 n
f 2 36 w
f 0 24 e
f 0 24 w
f 0 28 w
f 4 33 e
h 4 0 w
f 2 59 w
h 0 25 n
t 3 50 e
r 2 53 w
f 0 12 n
h 3 20 e
t 2 26 s
r 0 8 e
r 3 1 n
t 3 47 e
h 3 55 n
t 1 23 e
f 4 33 s
r 1 49 n
r 0 18 w
h 0 38 n
f 3 27 w
t 3 48 w
r 3 8 s
r 4 52 s
h 1 7 s
t 3 14 w
h 4 0 n
f 0 38 w
r 3 56 n
r 3 3 n
r 4 29 e
r 0 15 n
f 1 12 s
t 4 57 n
t 3 3 n
r 3 8 w
f 1 52 s
t 2 22 s
h 2 31 w
t 3 56 w
t 2 28 w
r 2 7 s
r 2 50 w
t 0 43 w
h 2 60 s
f 3 35 n
f 3 6 w
h 2 57 w
r 4 52 w
f 3 32 s
f 1 22 w
f 4 14 w
r 0 44 s
f 4 0 s
r 0 52 s
f 4 52 n
h 4 1 s
t 1 28 n
r 3 49 w
f 2 40 w
t 4 20 e
r 2 12 e
t 3 14 s
h 4 21 e
f 4 58 n
t 2 15 n
h 0 57 s
r 4 1 s
f 1 22 e
r 2 11 w
f 1 8 e
r 0 52 w
t 1 55 w
f 4 11 w
t 1 14 n
t 1 3 n
r 0 35 w
f 1 49 e
h 0 1 e
t 1 34 s
f 1 47 s
t 4 45 s
h 2 48 s
t 1 7 w
t 1 25 w
r 3 42 w
r 1 28 n
h 3 44 w
h 3 43 s
r 1 3 e
f 4 50 e
f 3 25 n
t 4 3 n
r 0 14 w
t 1 49 n
f 2 10 w
t 4 56 n
h 4 16 w
t 4 41 s
f 3 53 w
t 0 42 w
h 3 38 s
h 1 35 n
h 3 41 e
r 2 21 w
h 1 43 e
t 2 19 s
f 1 48 e
r 0 56 s
t 4 38 s
f 1 0 s
h 1 43 n
h 3 29 n
r 1 47 e
f 1 2 w
h 3 13 e
h 4 22 n
h 1 32 n
r 2 30 s
r 1 48 w
r 3 3 n
r 2 49 n
t 2 32 s
r 3 54 s
r 2 57 s
r 0 12 n
r 2 9 n
h 1 10 w
r 2 1 n
r 3 25 w
t 0 15 n
r 2 43 s
r 1 15 s
t 1 58 w
h 2 39 n
f 3 59 w
t 3 14 s
r 2 45 e
t 3 25 w
f 2 30 s
r 4 40 n
h 3 23 n
h 0 37 s
h 1 21 n
t 2 13 e
h 4 40 s
f 3 10 s
r 3 26 e
t 3 6 n
r 4 33 e
f 2 54 s
h 4 15 w
t 3 17 e
t 2 45 n
f 4 1 e
f 3 47 s
t 1 44 n
t 2 39 n
h 0 42 e
f 1 55 n
r 2 10 w
f 1 56 e
f 3 32 n
t 4 54 s
t 3 36 s
f 3 18 n
r 4 5 e
h 3 49 e
h 3 52 s
1311 154

59 57
145
f 8 24 w
t 11 32 e
r 5 32 s
h 43 27 w
r 49 49 n
f 56 39 e
t 31 3 e
f 44 17 n
t 50 44 s
h 52 1 e
f 28 1 e
f 5 13 w
f 58 18 s
r 20 32 e
t 25 1 s
f 16 5 w
f 46 30 e
f 22 34 n
r 40 56 s
h 23 33 w
f 24 41 w
f 15 9 n
r 7 41 e
t 22 48 w
f 53 23 n
h 26 46 w
h 43 47 s
t 5 42 n
f 47 26 s
r 57 52 w
r 14 30 s
t 20 28 s
r 10 53 w
f 30 52 s
h 22 9 n
r 6 7 e
r 47 9 w
h 32 19 e
f 26 1 e
r 26 56 w
t 45 6 n
t 12 17 n
t 33 13 s
r 42 51 w
r 32 27 n
t 50 4 w
t 40 29 e
f 48 56 w
t 25 36 s
r 28 54 w
t 33 8 w
t 39 32 s
h 47 21 s
f 21 54 e
f 15 38 e
t 39 46 n
r 40 50 s
h 42 43 s
f 47 15 n
r 46 54 e
t 33 49 e
h 31 48 s
f 22 5 s
f 6 13 n
h 47 36 s
r 45 55 w
h 9 29 e
r 0 43 w
f 29 10 s
h 0 1 n
f 49 47 e
h 17 38 s
f 54 31 w
r 36 55 n
t 22 4 s
h 55 45 s
h 21 39 s
h 52 23 s
h 31 43 s
f 49 31 s
f 50 48 n
h 10 4 e
r 40 48 w
t 58 49 s
r 15 36 n
t 21 15 w
f 7 21 w
f 46 51 e
f 36 40 s
t 34 48 s
r 26 31 w
f 31 19 w
r 34 10 w
f 2 48 s
f 51 29 w
f 10 44 e
r 10 43 w
h 41 40 w
r 46 43 e
h 43 15 e
f 39 22 w
f 11 12 w
f 18 25 e
t 25 34 w
h 18 17 e
f 9 51 w
h 55 43 n
f 9 26 s
h 58 36 e
r 52 23 s
r 33 6 s
r 31 48 n
t 46 22 e
h 54 5 w
h 8 42 e
h 55 23 e
f 41 28 n
t 2 14 w
f 7 0 w
r 33 9 s
h 6 23 s
f 35 51 n
r 50 37 s
h 38 55 s
t 52 46 n
f 33 44 s
r 40 18 s
f 11 53 s
f 30 38 n
h 36 49 n
f 41 25 s
t 25 10 w
h 27 1 w
t 18 22 s
t 38 15 w
r 1 11 e
r 41 36 w
r 41 7 w
r 40 30 s
t 23 30 w
t 10 31 s
h 17 26 s
f 6 54 n
t 53 34 s
f 39 16 e
1938 142

36 81
171
f 11 42 n
t 15 63 s
f 21 34 e
t 9 45 s
t 26 12 s
r 26 32 s
h 1 28 n
f 9 76 s
f 27 79 n
r 19 47 w
h 19 6 w
t 24 79 w
t 35 2 w
f 3 69 w
f 21 18 s
r 27 35 s
h 30 60 w
h 26 28 s
t 3 12 w
f 28 18 e
f 6 13 w
h 6 35 n
h 2 44 n
h 31 1 w
t 16 55 e
t 14 51 w
r 19 49 n
t 6 54 n
f 32 63 s
f 20 17 e
f 17 67 n
r 35 78 w
r 13 8 e
t 2 36 n
h 9 10 s
t 31 8 w
r 28 69 n
f 24 9 s
r 12 41 e
f 18 57 w
f 28 36 s
r 0 56 s
f 14 69 s
r 6 47 w
h 0 13 w
r 8 45 n
h 21 79 n
r 31 61 s
r 8 43 n
r 19 63 n
r 7 23 e
r 34 75 n
f 34 9 e
r 14 71 s
r 22 25 n
r 9 6 w
f 5 18 w
f 28 47 w
f 25 46 w
h 27 56 s
t 21 59 n
h 12 57 e
f 21 67 s
f 10 60 n
f 6 3 e
t 35 44 e
t 25 38 n
h 5 43 w
t 16 48 s
h 25 26 n
h 16 31 e
t 29 12 n
h 2 25 e
t 18 53 e
h 23 14 w
h 17 48 w
f 7 43 e
t 1 47 w
h 31 71 s
r 11 32 e
t 24 51 s
h 2 15 w
t 9 2 s
h 7 47 e
t 6 79 w
r 28 70 n
h 34 74 e
h 27 19 e
f 1 73 w
h 10 9 w
f 33 69 w
r 27 71 e
h 14 5 s
r 9 9 s
h 23 16 n
h 0 63 n
r 34 28 n
t 0 26 e
f 12 30 w
r 4 2 s
r 19 13 n
f 29 75 n
h 11 1 e
t 20 19 e
t 33 12 s
h 5 63 s
t 23 60 w
r 3 24 n
r 10 28 w
h 33 76 e
h 32 40 n
r 11 47 s
r 11 8 w
t 22 6 s
r 20 42 e
f 32 76 s
r 19 61 n
t 29 74 w
t 33 77 s
t 16 61 n
h 11 31 s
f 26 80 w
t 30 43 w
h 29 6 e
t 24 29 e
r 7 12 n
t 13 19 w
h 24 77 e
f 28 54 e
h 5 24 s
t 7 26 e
f 7 28 s
f 2 35 e
h 32 26 n
h 24 10 e
t 31 31 n
r 35 67 n
r 23 47 s
h 3 68 w
f 1 39 e
r 24 39 w
t 15 28 s
r 28 45 n
f 11 65 e
t 29 31 e
t 6 23 e
t 32 33 n
r 21 6 s
f 35 13 n
r 32 60 n
t 11 17 s
f 19 72 w
t 6 50 w
t 9 2 e
f 13 25 w
r 10 75 w
t 33 64 e
t 27 13 w
r 0 70 s
t 3 46 n
t 9 25 e
h 0 67 s
t 27 18 n
t 22 34 w
r 1 38 e
f 19 50 e
t 13 5 w
t 17 33 n
r 1 74 n
f 17 72 w
h 31 54 s
999 165
