13

133 5
45
r 75 1 n
r 17 3 s
t 35 2 s
f 58 3 n
t 73 1 n
r 129 2 s
t 108 0 s
t 19 1 w
r 20 3 s
f 124 1 s
h 8 1 w
f 103 0 w
f 132 1 e
t 119 4 w
r 81 0 s
t 50 1 n
h 111 0 w
t 62 3 n
r 83 1 e
r 128 0 e
r 53 3 e
f 50 2 s
t 71 3 e
h 8 4 e
h 46 4 e
r 44 4 w
r 113 4 e
t 34 0 s
t 78 4 s
f 24 1 e
f 1 4 n
h 58 3 n
f 26 2 e
r 107 1 s
f 55 0 s
h 24 2 n
r 27 4 s
r 24 2 s
h 35 0 s
h 81 1 e
t 104 3 w
t 68 1 s
t 46 3 e
t 8 0 e
f 42 3 s
866 146

70 89
47
t 56 38 n
f 23 61 e
f 35 8 n
h 48 14 n
t 44 86 s
h 64 46 s
h 22 16 e
r 47 26 n
r 59 32 n
f 8 30 w
h 65 84 s
f 38 10 e
t 47 37 w
f 48 30 w
t 17 31 e
h 50 59 n
t 48 21 w
f 44 69 w
h 13 13 e
t 25 28 e
f 6 85 w
r 36 40 n
t 38 52 w
r 58 44 w
f 15 2 e
r 12 34 w
f 57 0 w
r 33 37 s
f 53 87 s
r 47 40 s
h 48 36 e
t 50 46 w
r 65 36 n
h 18 87 e
f 6 57 s
f 20 74 e
t 16 70 s
f 46 74 s
h 23 86 n
f 3 79 s
t 55 23 s
r 9 15 e
r 59 33 n
f 26 35 e
f 37 75 e
t 47 2 n
h 50 71 s
741 14

107 92
30
r 76 55 s
t 18 44 n
h 75 15 w
t 45 1 e
t 74 2 w
r 0 74 w
h 44 32 e
t 72 66 s
f 1 59 e
h 89 9 s
h 81 68 n
h 45 25 n
t 92 17 w
f 93 61 s
t 6 46 n
f 95 53 w
h 34 36 e
f 31 51 w
f 45 66 e
r 96 33 w
f 96 79 n
r 74 48 e
r 47 35 n
f 86 61 n
h 90 59 n
t 47 88 s
r 11 47 w
t 1 68 w
f 88 41 e
f 29 88 e
356 193

110 57
26
r 62 39 n
t 49 23 s
h 53 26 e
h 106 11 w
r 76 28 e
t 12 31 n
h 61 17 e
f 31 38 n
h 75 36 w
r 101 28 w
r 84 7 w
t 54 1 w
t 11 48 n
t 18 20 n
t 84 25 s
h 71 38 e
h 27 40 n
h 39 46 s
h 57 0 e
r 99 53 s
f 56 39 s
f 25 55 e
f 93 10 n
h 47 38 e
t 76 43 e
t 87 14 e
111 86

122 134
23
t 86 90 n
r 36 15 w
t 1 8 w
t 115 58 e
h 12 23 s
h 72 23 w
t 19 123 n
h 66 32 s
h 60 23 w
r 91 78 e
f 19 51 e
t 18 114 n
h 117 64 e
t 80 82 s
f 52 127 s
h 59 38 e
r 4 24 e
h 18 47 e
r 93 87 n
h 51 45 s
r 34 10 s
r 71 131 e
r 36 73 e
216 184

196 199
50
h 191 53 n
r 78 10 n
r 110 85 s
h 61 99 n
h 40 152 s
f 133 170 n
f 44 83 e
r 51 81 w
h 63 160 e
h 134 50 e
r 183 46 s
f 0 95 w
h 146 157 n
h 56 122 n
h 32 119 n
h 153 182 e
t 91 178 s
r 184 103 e
h 185 105 n
f 92 134 w
h 148 136 e
r 125 103 w
f 49 30 w
r 179 147 e
t 59 16 e
r 23 158 s
f 134 84 e
t 157 54 e
f 33 176 e
t 106 42 n
f 50 130 s
f 65 76 e
h 131 153 w
r 75 114 w
f 9 11 e
t 79 183 w
t 4 10 n
t 57 20 w
f 11 54 w
h 113 75 e
h 194 30 n
h 60 28 w
t 9 132 n
r 189 86 s
r 8 186 e
f 150 170 n
r 189 23 s
r 142 120 s
f 19 131 w
h 39 149 w
1662 124

119 52
37
r 78 22 s
r 96 1 n
h 84 15 w
h 21 6 e
r 74 4 n
f 101 22 n
r 112 33 s
t 75 40 s
h 33 31 e
f 80 20 w
h 83 49 e
r 110 28 w
t 117 27 n
t 98 4 w
f 57 25 s
t 7 37 e
h 75 43 w
f 16 18 w
f 8 25 e
h 26 35 s
r 76 17 e
f 35 46 s
r 63 34 n
r 82 50 s
f 111 24 s
h 2 10 e
r 30 28 n
r 38 33 n
r 89 44 s
h 13 36 n
t 42 10 w
r 108 20 s
t 17 31 s
r 12 11 w
f 9 23 w
h 118 27 e
h 101 8 s
693 8

100 169
2
t 63 30 e
h 9 70 e
1459 190

67 33
11
h 62 12 n
h 9 17 n
t 8 15 s
h 58 21 s
t 32 2 s
t 60 30 w
t 58 32 n
r 32 7 n
h 47 2 w
t 17 24 e
t 23 3 w
1817 97

170 136
10
t 140 110 e
f 162 44 s
r 7 71 e
t 44 34 e
t 56 97 n
h 119 0 w
t 18 110 e
t 126 103 n
t 10 42 w
f 146 117 s
1426 127

56 184
17
f 29 46 e
h 34 3 e
h 50 52 s
t 4 100 s
f 42 158 s
f 49 122 n
t 15 43 w
r 35 1 w
h 31 129 n
f 45 40 e
f 32 158 n
h 15 176 s
r 37 112 n
h 48 28 w
t 29 49 s
t 0 30 s
t 45 79 e
315 174

179 131
16
r 2 37 s
f 86 127 e
t 57 120 n
t 136 19 n
h 44 129 e
f 5 58 s
h 174 89 w
f 73 66 w
r 145 99 e
h 44 11 e
f 0 31 n
f 128 116 e
h 90 9 e
r 61 21 s
f 177 69 s
t 22 51 w
618 182

127 129
32
t 5 89 s
h 107 52 e
f 86 17 e
r 76 63 s
t 99 37 s
f 99 98 e
h 16 29 e
r 62 123 w
r 100 112 n
f 37 59 n
h 58 4 w
r 56 34 s
f 93 87 e
t 30 118 n
t 40 99 n
r 79 125 n
t 118 67 e
f 121 54 n
r 72 1 s
h 14 99 e
h 105 30 s
h 43 51 e
r 6 83 e
t 25 48 n
r 18 52 s
t 9 30 w
f 45 13 e
t 65 108 s
r 25 56 w
t 29 60 w
h 122 116 w
r 23 2 n
575 26
