*** Darwin 18x16 ***
Turn = 0.
  0123456789012345
0 .....t..........
1 ........t....r..
2 ..............h.
3 .......t..f.....
4 ...........r....
5 h...t...........
6 f........r......
7 .f..............
8 .............t..
9 ...f..........t.
0 ...............r
1 ..f.r...........
2 ........f.......
3 ................
4 ................
5 .....f..........
6 ............h...
7 ..t............r

Turn = 3.
  0123456789012345
0 .....t..........
1 ........t.r.....
2 h..........h....
3 .......t..f.....
4 ................
5 ....t...........
6 f.....r.........
7 .f.........r...r
8 .............t..
9 ...f..........t.
0 ................
1 ..rr............
2 ........f.......
3 ................
4 ...............r
5 .....f..........
6 ................
7 ..t.........h...

Turn = 6.
  0123456789012345
0 h....t..........
1 ........rr......
2 ........h.......
3 .......t..f.....
4 ...............r
5 ....t...........
6 f..r............
7 .f..............
8 .............t..
9 ...f..........t.
0 ...........r....
1 ...............r
2 ........f.......
3 ................
4 ..rr............
5 .....f..........
6 ................
7 ..t.........h...

Turn = 9.
  0123456789012345
0 h....t....r.....
1 ...............r
2 .....r..........
3 .......tt.f.....
4 ................
5 ....t...........
6 rr..............
7 .f..............
8 .............t..
9 ...f..........tt
0 ................
1 ................
2 ........f.......
3 ...........r....
4 ................
5 .....f..........
6 ..t.............
7 ..tr........h...

Turn = 12.
  0123456789012345
0 h....t.......rr.
1 ................
2 ..r.............
3 r......tt.f.....
4 ................
5 ....t...........
6 ................
7 rf..............
8 .............t..
9 ...f..........tt
0 ................
1 ................
2 ........f.......
3 ................
4 ................
5 .....f..........
6 ..t........r....
7 ..rr........h...

Turn = 15.
  0123456789012345
0 r....t......r..r
1 r...............
2 r...............
3 .......tt.f.....
4 ................
5 ....t...........
6 ................
7 .f..............
8 .............t..
9 ...f..........tt
0 r...............
1 ................
2 ........f.......
3 ................
4 ...r............
5 .....f..........
6 ..t.............
7 ..t.......r.h...

Turn = 18.
  0123456789012345
0 r....t...r.....r
1 ................
2 r...............
3 .......tt.f.....
4 ................
5 r...t...........
6 ................
7 .f..............
8 .............t..
9 ...f..........tt
0 ................
1 ...r............
2 ........f.......
3 r...............
4 ................
5 .....f..........
6 ..t.............
7 ..t....r....h...

*** Darwin 18x20 ***
Turn = 0.
  01234567890123456789
0 ......h.t...........
1 r...................
2 ...............t..h.
3 .............r......
4 ...........h........
5 ......r.............
6 ..............f.....
7 ....h...............
8 ............r......r
9 .................f..
0 .f..................
1 ..h.................
2 ................f...
3 .....r.............h
4 ..t.................
5 ..................h.
6 r...................
7 .........ht.........

Turn = 3.
  01234567890123456789
0 .......ht....r......
1 ...r................
2 ...............t....
3 ....................
4 ....................
5 .........r........h.
6 ..............f.....
7 ...........h........
8 ..h............r....
9 .................f..
0 .f..h...............
1 ...................r
2 ................f...
3 r...................
4 ..t.................
5 ...............h....
6 .....r.............h
7 .........tt.........

Turn = 6.
  01234567890123456789
0 .......tt......r....
1 ......r.............
2 ...............t....
3 ....................
4 ....................
5 ..h.........r.......
6 ..............f.....
7 ....................
8 .................rr.
9 .................f..
0 rf.........h........
1 ....................
2 ................f...
3 ....h...............
4 ..t................r
5 ............h.......
6 ....................
7 ......r..tt........h

Turn = 9.
  01234567890123456789
0 .......tt.........r.
1 .......t............
2 ..h............t....
3 ....................
4 ....................
5 ...............r....
6 ..............f.....
7 r...................
8 ....................
9 .................r..
0 .f..................
1 .................rr.
2 ................f...
3 ...........h........
4 ..t.................
5 .........h..........
6 ....h..............r
7 ........rrt........r

Turn = 12.
  01234567890123456789
0 ..h....tt..........r
1 .......t............
2 ...............t....
3 ....................
4 r...................
5 ..................r.
6 ..............f.....
7 ....................
8 ....................
9 ....................
0 .f..................
1 ....................
2 ................fr..
3 ....................
4 ..t......r.......rr.
5 ......h.r...........
6 ...........h.....r..
7 ....h.....t.....r...

Turn = 15.
  01234567890123456789
0 ..h....tt...........
1 r......t............
2 ...............t...r
3 ....................
4 ...................r
5 ....................
6 ..............f.....
7 ....................
8 ....................
9 ....................
0 .f..................
1 .........r..........
2 ........r.......f...
3 ....................
4 ..t.................
5 ...h.............r..
6 ..............r.....
7 ....h.....th.r...rr.

Turn = 18.
  01234567890123456789
0 .rh....tt...........
1 .......t............
2 ...............t....
3 ...................r
4 ...................r
5 ....................
6 ..............f.....
7 ....................
8 .........r..........
9 ........r...........
0 .f..................
1 ....................
2 ................f...
3 ....................
4 ..t.................
5 h...................
6 ...........r.....rr.
7 ....h.....ttt.....r.

*** Darwin 19x17 ***
Turn = 0.
  01234567890123456
0 ..........r......
1 .....t..f........
2 ............f....
3 ....r........t...
4 ...............t.
5 ...........h....t
6 ........h........
7 ..........t......
8 ..............h..
9 .r.....f.........
0 ........r........
1 ...f.............
2 .....r...........
3 .........t.......
4 .r...............
5 ..t..............
6 ...........r.....
7 ................r
8 ...t..f..........

Turn = 1.
  01234567890123456
0 .................
1 .....t..f.r......
2 ............f....
3 .............t...
4 ....r..........t.
5 ........h...h...t
6 .................
7 ..........t......
8 ...............h.
9 .......fr........
0 .r...............
1 ...f.r...........
2 .................
3 .........t.......
4 r................
5 ..t..............
6 ............r....
7 ...............r.
8 ...t..f..........

Turn = 2.
  01234567890123456
0 .................
1 .....t..f........
2 ..........r.f....
3 .............t...
4 ........h......t.
5 ....r........h..t
6 .................
7 ..........t......
8 ........r.......h
9 .......f.........
0 .....r...........
1 .r.f.............
2 .................
3 .........t.......
4 r................
5 ..t..............
6 .............r...
7 ..............r..
8 ...t..f..........

Turn = 3.
  01234567890123456
0 .................
1 .....t..f........
2 ............f....
3 ........h.r..t...
4 ...............t.
5 ..............h.t
6 ....r............
7 ........r.t......
8 ................h
9 .....r.f.........
0 .................
1 ...f.............
2 .r...............
3 r........t.......
4 .................
5 ..t..............
6 ..............r..
7 .............r...
8 ...t..f..........

Turn = 4.
  01234567890123456
0 .................
1 .....t..f........
2 ........h...f....
3 .............t...
4 ..........r....t.
5 ...............ht
6 ........r........
7 ....r.....t......
8 .....r..........h
9 .......f.........
0 .................
1 ...f.............
2 r................
3 .r.......t.......
4 .................
5 ..t..............
6 ...............r.
7 ............r....
8 ...t..f..........

Turn = 5.
  01234567890123456
0 .................
1 .....t..f........
2 ........h...f....
3 .............t...
4 ...............t.
5 ........r.r....ht
6 .................
7 .....r....t......
8 ....r...........h
9 .......f.........
0 .................
1 r..f.............
2 .................
3 .........t.......
4 .r...............
5 ..t..............
6 ................r
7 ...........r.....
8 ...t..f..........

Turn = 6.
  01234567890123456
0 .................
1 .....t..f........
2 ........h...f....
3 .............t...
4 ........r......t.
5 ...............tt
6 .....r....t......
7 ..........t......
8 ................h
9 ....r..f.........
0 r................
1 ...f.............
2 .................
3 .........t.......
4 .................
5 .rt..............
6 ................r
7 ..........r......
8 ...t..f..........

Turn = 7.
  01234567890123456
0 .................
1 .....t..f........
2 ........h...f....
3 ........r....t...
4 ...............t.
5 .....r.........tt
6 ..........t......
7 ..........t......
8 ................h
9 r......f.........
0 ....r............
1 ...f.............
2 .................
3 .........t.......
4 .................
5 ..t.............r
6 .r...............
7 .........r.......
8 ...t..f..........

Turn = 8.
  01234567890123456
0 .................
1 .....t..f........
2 ........r...f....
3 ........r....t...
4 .....r.........t.
5 ...............tt
6 ..........t......
7 ..........t......
8 r...............h
9 .......f.........
0 .................
1 ...fr............
2 .................
3 .........t.......
4 ................r
5 ..t..............
6 .................
7 .r......r........
8 ...t..f..........

Turn = 9.
  01234567890123456
0 .................
1 .....t..r........
2 ........r...f....
3 .....r..r....t...
4 ...............t.
5 ...............tt
6 ..........t......
7 r.........t......
8 ................h
9 .......f.........
0 .................
1 ...f.............
2 ....r............
3 .........t......r
4 .................
5 ..t..............
6 .................
7 .......r.........
8 .r.t..f..........

Turn = 10.
  01234567890123456
0 .................
1 .....t..r........
2 .....r..r...f....
3 .........r...t...
4 ...............t.
5 ...............tt
6 r.........t......
7 ..........t......
8 ................h
9 .......f.........
0 .................
1 ...f.............
2 ................r
3 ....r....t.......
4 .................
5 ..t..............
6 .................
7 ......r..........
8 .r.t..f..........

Turn = 11.
  01234567890123456
0 .................
1 .....r.r.........
2 .....r...r..f....
3 ..........r..t...
4 ...............t.
5 r..............tt
6 ..........t......
7 ..........t......
8 ................h
9 .......f.........
0 .................
1 ...f............r
2 .................
3 .........t.......
4 ....r............
5 ..t..............
6 .................
7 .....r...........
8 r..t..f..........

Turn = 12.
  01234567890123456
0 .....r...........
1 .....rr..........
2 ..........r.f....
3 ...........r.t...
4 r..............t.
5 ...............tt
6 ..........t......
7 ..........t......
8 ................h
9 .......f.........
0 ................r
1 ...f.............
2 .................
3 .........t.......
4 .................
5 ..t.r............
6 .................
7 ....r............
8 r..t..f..........

Turn = 13.
  01234567890123456
0 .....r...........
1 .....rr..........
2 ...........rf....
3 r...........rt...
4 ...............t.
5 ...............tt
6 ..........t......
7 ..........t......
8 ................h
9 .......f........r
0 .................
1 ...f.............
2 .................
3 .........t.......
4 .................
5 ..t..............
6 ....r............
7 ...t.............
8 r..t..f..........

Turn = 14.
  01234567890123456
0 ....r.r..........
1 .....r......r....
2 r..........r.r...
3 ............r....
4 ...............t.
5 ...............tt
6 ..........t......
7 ..........t......
8 ................r
9 .......f........r
0 .................
1 ...f.............
2 .................
3 .........t.......
4 .................
5 ..t..............
6 .................
7 ...tr............
8 .r.t..f..........

Turn = 15.
  01234567890123456
0 ...r..r.....r....
1 r............r...
2 .....r......r....
3 .............r...
4 ...............t.
5 ...............tt
6 ..........t......
7 ..........t......
8 ................r
9 .......f........r
0 .................
1 ...f.............
2 .................
3 .........t.......
4 .................
5 ..t..............
6 .................
7 ...t.............
8 ..ttr.f..........

Turn = 16.
  01234567890123456
0 r.r..r......rr...
1 .................
2 .............r...
3 .....r........r..
4 ...............t.
5 ...............tt
6 ..........t......
7 ..........t......
8 ................r
9 .......f........r
0 .................
1 ...f.............
2 .................
3 .........t.......
4 .................
5 ..t..............
6 .................
7 ...t.............
8 ..ttr.f..........

*** Darwin 15x19 ***
Turn = 0.
  0123456789012345678
0 ...............h...
1 .......h........f..
2 ........h..........
3 ..rf...............
4 .........f.........
5 ..........r...f....
6 ....t..........r...
7 ...........h.......
8 ......f......f.....
9 .....h.............
0 ...h.............t.
1 ..................f
2 .f................f
3 ............t....h.
4 h..................

Turn = 2.
  0123456789012345678
0 ........h......h...
1 ................f..
2 ...................
3 ...f...h...........
4 .........f.........
5 ..r...........f....
6 ....t............r.
7 .....h....r..h.....
8 ......f......f.....
9 ...................
0 .....h...........t.
1 ..................f
2 hf................f
3 ............t......
4 .................h.

Turn = 4.
  0123456789012345678
0 ........h......h...
1 ................f..
2 ...................
3 ...f...............
4 .........f.........
5 .....h.h......f....
6 ....t.............r
7 ..r............h...
8 ......f......f.....
9 ..........r........
0 h......h.........t.
1 ..................f
2 .f................f
3 ............t......
4 .................h.

Turn = 6.
  0123456789012345678
0 ........h......h...
1 ................f..
2 ...................
3 ...f.h.............
4 .........f.........
5 ..............f....
6 ....t..............
7 .......h.........h.
8 h.....f......f....r
9 ..r................
0 .........h.......t.
1 ..........r.......f
2 .f................f
3 ............t......
4 .................h.

Turn = 8.
  0123456789012345678
0 ........h......h...
1 .....h..........f..
2 ...................
3 ...f...............
4 .........f.........
5 ..............f....
6 h...t..............
7 ..................h
8 ......f......f.....
9 .......h...........
0 ...........h.....tr
1 ..r...............f
2 .f................f
3 ..........r.t......
4 .................h.

Turn = 10.
  0123456789012345678
0 .....h..h......h...
1 ................f..
2 ...................
3 ...f...............
4 h........f.........
5 ..............f....
6 ....t..............
7 ..................h
8 ......f......f.....
9 ...................
0 .............h...t.
1 .......h.........tr
2 .f................f
3 ..r.........t......
4 ..........r......h.

Turn = 12.
  0123456789012345678
0 .....h..h......h...
1 ................f..
2 h..................
3 ...f...............
4 .........f.........
5 ..............f....
6 ....t..............
7 ..................h
8 ......f......f.....
9 ...................
0 ...............h.t.
1 .................tt
2 .f.................
3 .......h....t......
4 ..r.........r....hr

Turn = 14.
  0123456789012345678
0 h....h..h......h...
1 ................f..
2 ...................
3 ...f...............
4 .........f.........
5 ..............f....
6 ....t..............
7 ..................h
8 ......f......f.....
9 ...................
0 ................tt.
1 .................tt
2 .f.................
3 ............t......
4 r......h......r..rr

*** Darwin 20x16 ***
Turn = 0.
  0123456789012345
0 t..f............
1 ................
2 ..h.......r.....
3 .........f......
4 ............f...
5 ...............h
6 .............tf.
7 ..h.............
8 .....h..........
9 ................
0 ....h...........
1 .r......t.......
2 ...........r....
3 .......f........
4 ................
5 ......h.........
6 .............h..
7 .........r......
8 ...............r
9 ...ft...........

Turn = 2.
  0123456789012345
0 t.hf............
1 ................
2 ........r.......
3 .........f......
4 ............f...
5 ................
6 .............tf.
7 ....h..........h
8 ................
9 .....h..........
0 ......h.........
1 r.......t.......
2 ................
3 ......hf........
4 ...........r.h..
5 ................
6 ................
7 .......r........
8 ................
9 ...tt..........r

Turn = 4.
  0123456789012345
0 t.hf............
1 ................
2 ......r.........
3 .........f......
4 ............f...
5 ................
6 .............tt.
7 ......h.........
8 ................
9 ...............h
0 ........h.......
1 .....hh.t.......
2 .............h..
3 r......f........
4 ................
5 ................
6 ...........r....
7 .....r..........
8 ................
9 ...tt.........r.

Turn = 6.
  0123456789012345
0 t.hf............
1 ................
2 ....r...........
3 .........f......
4 ............f...
5 ................
6 .............tt.
7 ........h.......
8 ................
9 ......h.........
0 ..........h..h..
1 ........t......h
2 ................
3 .....h.f........
4 ................
5 r...............
6 ................
7 ...r............
8 ...........r....
9 ...tt.......r...

Turn = 8.
  0123456789012345
0 t.hf............
1 ................
2 ..r.............
3 .........f......
4 ............f...
5 ................
6 .............tt.
7 ......h...h.....
8 .............h..
9 ................
0 ............h...
1 ........t.......
2 ................
3 .......f.......h
4 ................
5 .....h..........
6 ................
7 rr..............
8 ............r...
9 ...tt......r....

Turn = 10.
  0123456789012345
0 t.hf............
1 ................
2 r...............
3 .........f......
4 ............f...
5 ......h.........
6 .............tt.
7 ............hh..
8 ................
9 ................
0 ..............h.
1 ........t.......
2 ................
3 .......f........
4 ................
5 ...............h
6 ............r...
7 r....h..........
8 ................
9 r..tt....r......

Turn = 12.
  0123456789012345
0 t.hf............
1 ................
2 ................
3 r.....h..f......
4 ............f...
5 ................
6 .............tt.
7 ............tt..
8 ................
9 ................
0 ...............h
1 ........t.......
2 ................
3 .......f........
4 ............r...
5 r...............
6 ................
7 ...............h
8 ................
9 .r.ttt.r........

Turn = 14.
  0123456789012345
0 t.hf............
1 ......h.........
2 ................
3 .........f......
4 ............f...
5 r...............
6 .............tt.
7 ............tt..
8 ................
9 ................
0 ...............h
1 ........t.......
2 ............r...
3 r......f........
4 ................
5 ................
6 ................
7 ................
8 ................
9 ..ttttt........h

Turn = 16.
  0123456789012345
0 t.hf..h.........
1 ................
2 ................
3 .........f......
4 ............f...
5 ................
6 .............tt.
7 r...........tt..
8 ................
9 ................
0 ............r..h
1 r.......t.......
2 ................
3 .......f........
4 ................
5 ................
6 ................
7 ................
8 ................
9 ..ttttt........h

*** Darwin 17x15 ***
Turn = 0.
  012345678901234
0 ...............
1 r..........t...
2 ........r......
3 .........t.....
4 ....f.......h..
5 .h.....t.......
6 .............t.
7 ......f........
8 .....f.........
9 ..h............
0 ..............t
1 .......r.......
2 ...h...........
3 ............r..
4 ......r........
5 h..........f...
6 ....t..........

Turn = 2.
  012345678901234
0 r..............
1 ...........t...
2 .........t.....
3 .........t.....
4 ....f.....h....
5 ...h...t.......
6 .............t.
7 ......f........
8 .....f.........
9 .......r.......
0 ..............t
1 ..h............
2 ...............
3 h.........r....
4 ...h....r......
5 ...........f...
6 ....t..........

Turn = 4.
  012345678901234
0 ..r............
1 ...........t...
2 .........t.....
3 .........t.....
4 ....f....t.....
5 .....h.t.......
6 .............t.
7 ......fr.......
8 .....f.........
9 ...............
0 ..............t
1 h..............
2 ...............
3 ..h.....r......
4 ..........r....
5 ...........f...
6 ...ht..........

Turn = 6.
  012345678901234
0 ....r..........
1 ...........t...
2 .........t.....
3 .........t.....
4 ....f....t.....
5 ......tr.......
6 .......r.....t.
7 ......f........
8 .....f.........
9 h..............
0 ..............t
1 ...............
2 ...............
3 ......r........
4 ............r..
5 ..h........f...
6 ...tt..........

Turn = 8.
  012345678901234
0 ......r........
1 ...........t...
2 .........t.....
3 .........t.....
4 ....f....t.....
5 ......t.r......
6 ........r....t.
7 h.....f........
8 .....f.........
9 ...............
0 ..............t
1 ...............
2 ...............
3 ....r..........
4 ..............r
5 ...........f...
6 ..htt..........

Turn = 10.
  012345678901234
0 ........r......
1 ...........t...
2 .........t.....
3 .........t.....
4 ....f....t.....
5 h.....t...r....
6 ..........r..t.
7 ......f........
8 .....f.........
9 ...............
0 ..............t
1 ...............
2 ...............
3 ..r............
4 ...............
5 ...........f..r
6 ..ttt..........

Turn = 12.
  012345678901234
0 ..........r....
1 ...........t...
2 .........t.....
3 h........t.....
4 ....f....t.....
5 ......t.....r..
6 ............rt.
7 ......f........
8 .....f.........
9 ...............
0 ..............t
1 ...............
2 ...............
3 r..............
4 ...............
5 ...........f...
6 ..ttt.........r

Turn = 14.
  012345678901234
0 ...........t...
1 h..........t...
2 .........t.....
3 .........t.....
4 ....f....t.....
5 ......t......rr
6 ............r..
7 ......f........
8 .....f.........
9 ...............
0 ..............t
1 ...............
2 ...............
3 ...............
4 r..............
5 ...........f...
6 ..ttt.......r..

Turn = 16.
  012345678901234
0 h..........t...
1 ...........t...
2 .........t.....
3 .........t...r.
4 ....f....t..r..
5 ......t........
6 ..............r
7 ......f........
8 .....f.........
9 ...............
0 ..............t
1 ...............
2 ...............
3 ...............
4 ...............
5 ...........f...
6 r.ttt.....r....

Turn = 18.
  012345678901234
0 h..........t...
1 ...........t.r.
2 .........t..r..
3 .........t.....
4 ....f....t.....
5 ......t........
6 ...............
7 ......f........
8 .....f........r
9 ...............
0 ..............t
1 ...............
2 ...............
3 ...............
4 ...............
5 ...........f...
6 r.ttt...r......

Turn = 20.
  012345678901234
0 h..........trr.
1 ...........t...
2 .........t.....
3 .........t.....
4 ....f....t.....
5 ......t........
6 ...............
7 ......f........
8 .....f.........
9 ..............r
0 ..............r
1 ...............
2 ...............
3 ...............
4 ...............
5 ...........f...
6 r.ttt.r........

*** Darwin 19x18 ***
Turn = 0.
  012345678901234567
0 ..........t......r
1 ..............f...
2 ..................
3 ........f.........
4 .............h....
5 ...........r......
6 ..h...............
7 ...t..h...........
8 .......t..........
9 .....h.........r..
0 f.................
1 ....f.............
2 ................r.
3 .f................
4 ............t....h
5 ...t..............
6 ...........t......
7 .........t........
8 ...f..............

Turn = 3.
  012345678901234567
0 ..........t......r
1 .............hf...
2 ..................
3 ........f.........
4 ..................
5 ..............r...
6 h....h............
7 ...t.....h........
8 .......t..........
9 .................r
0 f.................
1 ....f.............
2 .............r....
3 .f................
4 ............t.h...
5 ...t..............
6 ...........t......
7 .........t........
8 ...f..............

Turn = 6.
  012345678901234567
0 ..........t..h....
1 ..............f...
2 .................r
3 .....h..f.........
4 ..................
5 .................r
6 h.................
7 ...t........h.....
8 .......t..........
9 ..................
0 f.................
1 ....f.............
2 ..........r......r
3 .f................
4 ............th....
5 ...t..............
6 ...........t......
7 .........t........
8 ...f..............

Turn = 9.
  012345678901234567
0 .....h....t..h....
1 ..............f...
2 ..................
3 ........f.........
4 ..................
5 .................r
6 h.................
7 ...t...........h.r
8 .......t..........
9 ..................
0 f.................
1 ....f.............
2 .......r..........
3 .f................
4 ............tt....
5 ...t.............r
6 ...........t......
7 .........t........
8 ...f..............

Turn = 12.
  012345678901234567
0 .....h....t..h....
1 ..............f...
2 ..................
3 ........f.........
4 ..................
5 ..................
6 h.................
7 ...t............h.
8 .......t.........r
9 ..................
0 f................r
1 ....f.............
2 ....r.............
3 .f................
4 ............tt....
5 ...t..............
6 ...........t......
7 .........t........
8 ...f.............r

Turn = 15.
  012345678901234567
0 .....h....t..h....
1 ..............f...
2 ..................
3 ........f.........
4 ..................
5 ..................
6 h.................
7 ...t.............h
8 .......t..........
9 ..................
0 f.................
1 ....f............r
2 .r................
3 .f...............r
4 ............tt....
5 ...t..............
6 ...........t......
7 .........t.......r
8 ...f..............

Turn = 18.
  012345678901234567
0 .....h....t..h....
1 ..............f...
2 ..................
3 ........f.........
4 ..................
5 ..................
6 h.................
7 ...t.............h
8 .......t..........
9 ..................
0 f.................
1 r...f.............
2 ..................
3 .f................
4 ............tt...r
5 ...t.............r
6 ...........t.....r
7 .........t........
8 ...f..............

*** Darwin 18x17 ***
Turn = 0.
  01234567890123456
0 ...............r.
1 t....t...........
2 ...........h.r...
3 ............f....
4 ...h..........t..
5 ....f.r..........
6 .....fh..........
7 ..f..............
8 .......r.f.......
9 ..........ft.....
0 ................r
1 .f...............
2 h................
3 ........h........
4 ...............t.
5 ..............t..
6 ..t..............
7 .............h...

Turn = 2.
  01234567890123456
0 ................r
1 t....t...........
2 .........h.r.....
3 ............f....
4 .....hh.......t..
5 ....rr...........
6 .....f...........
7 ..f..............
8 ........r........
9 .........rft.....
0 ..............r..
1 .f......h........
2 h................
3 .................
4 ...............t.
5 ..............t..
6 ..t..............
7 ...............h.

Turn = 4.
  01234567890123456
0 .................
1 t....t...........
2 ......hh.r......r
3 ....r.......f....
4 ......h.......t..
5 ...r.............
6 .....f...........
7 ..f..............
8 ..........r......
9 ........h.tt.....
0 ............r....
1 .f.......r.......
2 h................
3 .................
4 ...............t.
5 ..............t..
6 ..t..............
7 ................h

Turn = 6.
  01234567890123456
0 ......h..........
1 t...rt...........
2 .....h.r.........
3 ............f....
4 ........h.....t.r
5 .r...............
6 .....f...........
7 ..f.....h........
8 ............r....
9 ..........tt.....
0 ..........r......
1 .f...............
2 h................
3 .........r.......
4 ...............t.
5 ..............t..
6 ..t..............
7 ................h

Turn = 8.
  01234567890123456
0 ....r.h..........
1 t....t...........
2 .....rr..........
3 ............f....
4 ..........h...t..
5 r.......h........
6 .....f..........r
7 ..f..............
8 ..............r..
9 ..........tt.....
0 ........r........
1 .f...............
2 h................
3 .................
4 ...............t.
5 .........r....t..
6 ..t..............
7 ................h

Turn = 10.
  01234567890123456
0 ..r...h..........
1 t....tr..........
2 .................
3 r....r..h...f....
4 ............h.t..
5 .................
6 .....f...........
7 ..f..............
8 ...............rr
9 ..........tt.....
0 ......r..........
1 .f...............
2 h................
3 .................
4 ...............t.
5 ..............t..
6 ..t..............
7 .........r......h

Turn = 12.
  01234567890123456
0 r.....r..........
1 r....tr.h........
2 r................
3 ............f....
4 .............tt..
5 .....r...........
6 .....f...........
7 ..f..............
8 .................
9 ..........tt.....
0 ....r..........rr
1 .f...............
2 h................
3 .................
4 ...............t.
5 ..............t..
6 ..t..............
7 ..........r.....h

Turn = 14.
  01234567890123456
0 r...r...h........
1 .r...tt..........
2 .r...............
3 ............f....
4 .............tt..
5 .................
6 ...r.r...........
7 ..f..............
8 .................
9 ..........tt.....
0 ..r..............
1 .f...............
2 h..............rr
3 .................
4 ...............t.
5 ..............t..
6 ..t..............
7 ............r...h

Turn = 16.
  01234567890123456
0 r.r.....h........
1 ...r.tt..........
2 ...r.............
3 ............f....
4 .............tt..
5 .................
6 .r...............
7 ..f..............
8 .....r...........
9 ..........tt.....
0 r................
1 .f...............
2 h................
3 ...............t.
4 ...............tr
5 ..............t..
6 ..t..............
7 ..............r.h

*** Darwin 18x18 ***
Turn = 0.
  012345678901234567
0 ........f.........
1 ...............h..
2 ..................
3 ..........t......h
4 .....t............
5 ...h..............
6 .................t
7 .........f........
8 .......h..........
9 ..............t.f.
0 .................t
1 ............fh....
2 ...............h..
3 ..r...............
4 .h..........t.....
5 ......h.......r...
6 ...........h......
7 .f................

Turn = 3.
  012345678901234567
0 ........f.........
1 ..................
2 ..................
3 ..........t.......
4 .....t.........h..
5 .................h
6 .................t
7 .........f........
8 ...h.........h....
9 ..............thf.
0 .................t
1 .......h....f.....
2 ..................
3 .....r............
4 h...........t.....
5 .........h.......r
6 ........h.........
7 .f................

Turn = 6.
  012345678901234567
0 ........f.........
1 ..................
2 ..................
3 ..........t.......
4 .....t............
5 .............h...t
6 ...............h.t
7 .........f.....h..
8 ..................
9 ..............t.f.
0 .................t
1 ...h........f.....
2 ..................
3 ......r...........
4 h......r....t.....
5 ............h.....
6 .....h............
7 .f...............r

Turn = 9.
  012345678901234567
0 ........f.........
1 ..................
2 .............h....
3 ..........t.......
4 .....t............
5 .................t
6 ...............h.t
7 .........f.....h..
8 ..................
9 ..............t.f.
0 ......r..........t
1 ............f.....
2 ..................
3 ..................
4 h..h........t.....
5 ............t.....
6 ..h...............
7 .f.....r.......r..

Turn = 12.
  012345678901234567
0 ........f....h....
1 ..................
2 ..................
3 ..........t.......
4 .....t............
5 .................t
6 ...............h.t
7 ......r..f.....h..
8 ..................
9 ..............t.f.
0 .................t
1 ............f.....
2 ..................
3 ..................
4 h...........t.....
5 ............t.....
6 h.................
7 .f.h.r......r.....

Turn = 15.
  012345678901234567
0 ........f....h....
1 ..................
2 ..................
3 ..........t.......
4 .....tr...........
5 .................t
6 ...............h.t
7 .........f.....h..
8 ..................
9 ..............t.f.
0 .................t
1 ............f.....
2 ..................
3 ..................
4 h...........t.....
5 ............t.....
6 h.................
7 .f.rr....r........

Turn = 18.
  012345678901234567
0 ........f....h....
1 ......r...........
2 ..................
3 ..........t.......
4 .....t............
5 .................t
6 ...............h.t
7 .........f.....h..
8 ..................
9 ..............t.f.
0 .................t
1 ............f.....
2 ..................
3 ..................
4 h...r.......t.....
5 ............t.....
6 h.................
7 .rr...r...........

*** Darwin 15x19 ***
Turn = 0.
  0123456789012345678
0 ..th...............
1 ........r..........
2 .........r.........
3 ......f...........f
4 h..................
5 ..............h....
6 ................h.f
7 .............t.....
8 .................f.
9 ...............r...
0 ...r.......r.......
1 .......r.......r...
2 .h......f..........
3 ....fr.............
4 .........h..t......

Turn = 1.
  0123456789012345678
0 ..t.h..............
1 .........r.........
2 ...................
3 ......f..r........f
4 h..................
5 ...................
6 ..............h..hf
7 .............t.....
8 .................f.
9 ...r............r..
0 ...................
1 ........r..r..r....
2 h....r..f..........
3 ....f..............
4 ........h...t......

Turn = 2.
  0123456789012345678
0 ..t..h.............
1 ..........r........
2 ...................
3 ......f...........f
4 h........r.........
5 ...................
6 .................hf
7 .............th....
8 ...r.............f.
9 .................r.
0 ...................
1 .....r...r...r.....
2 h.......f..r.......
3 ....f..............
4 .......h....t......

Turn = 3.
  0123456789012345678
0 ..t...h............
1 ...........r.......
2 ...................
3 ......f...........f
4 h..................
5 .........r.........
6 .................hf
7 ...r.........tt....
8 .................f.
9 ..................r
0 .....r.............
1 ..........r.r......
2 h.......f..........
3 ....f......r.......
4 ......h.....t......

Turn = 4.
  0123456789012345678
0 ..t....h...........
1 ............r......
2 ...................
3 ......f...........f
4 h..................
5 ...................
6 ...r.....r.......hf
7 .............tt....
8 .................f.
9 .....r............r
0 ...................
1 ...........rr......
2 h.......f..........
3 ....f..............
4 .....h.....rt......

Turn = 5.
  0123456789012345678
0 ..t.....h..........
1 .............r.....
2 ...................
3 ......f...........f
4 h..................
5 ...r...............
6 .................hf
7 .........r...tt....
8 .....r...........f.
9 ...................
0 ..................r
1 ...........r.......
2 h.......f...r......
3 ....f..............
4 ....h......rt......

Turn = 6.
  0123456789012345678
0 ..t......h.........
1 ..............r....
2 ...................
3 ......f...........f
4 h..r...............
5 ...................
6 .................hf
7 .....r.......tt....
8 .........r.......f.
9 ...................
0 ...................
1 ..................r
2 h.......f..r.......
3 ....f.......t......
4 ...h......r.t......

Turn = 7.
  0123456789012345678
0 ..t.......h........
1 ...............r...
2 ...................
3 ...r..f...........f
4 h..................
5 ...................
6 .....r...........hf
7 .............tt....
8 .................f.
9 .........r.........
0 ...................
1 ...................
2 h.......f.........r
3 ....f......rt......
4 ..h......r..t......

Turn = 8.
  0123456789012345678
0 ..t........h.......
1 ................r..
2 ...r...............
3 ......f...........f
4 h..................
5 .....r.............
6 .................hf
7 .............tt....
8 .................f.
9 ...................
0 .........r.........
1 ...................
2 h.......f..........
3 ....f.......t.....r
4 .h......r..tt......

Turn = 9.
  0123456789012345678
0 ..t.........h......
1 ...r.............r.
2 ...................
3 ......f...........f
4 h....r.............
5 ...................
6 .................hf
7 .............tt....
8 .................f.
9 ...................
0 ...................
1 .........r.........
2 h.......f..........
3 ....f.......t......
4 h......r...tt.....r

Turn = 10.
  0123456789012345678
0 ..tr.........h.....
1 ..................r
2 ...................
3 .....rf...........f
4 h..................
5 ...................
6 .................hf
7 .............tt....
8 .................f.
9 ...................
0 ...................
1 ...................
2 h.......fr.........
3 ....f.......t......
4 h.....r....tt.....r

Turn = 11.
  0123456789012345678
0 ..tt..........h....
1 ..................r
2 .....r.............
3 ......f...........f
4 h..................
5 ...................
6 .................hf
7 .............tt....
8 .................f.
9 ...................
0 ...................
1 ...................
2 h.......f..........
3 ....f....r..t......
4 h....r.....tt....r.

Turn = 12.
  0123456789012345678
0 ..tt...........h...
1 .....r.............
2 ..................r
3 ......f...........f
4 h..................
5 ...................
6 .................hf
7 .............tt....
8 .................f.
9 ...................
0 ...................
1 ...................
2 h.......f..........
3 ....f.......t......
4 h...r....r.tt...r..

Turn = 13.
  0123456789012345678
0 ..tt.r..........h..
1 ...................
2 ..................r
3 ......f...........r
4 h..................
5 ...................
6 .................hf
7 .............tt....
8 .................f.
9 ...................
0 ...................
1 ...................
2 h.......f..........
3 ....f.......t......
4 h..r.....r.tt..r...

Turn = 14.
  0123456789012345678
0 ..tt.r...........h.
1 ...................
2 ..................r
3 ......f...........r
4 h..................
5 ...................
6 .................hf
7 .............tt....
8 .................f.
9 ...................
0 ...................
1 ...................
2 h.......f..........
3 ....f.......t......
4 h.r.......rtt.r....

Turn = 15.
  0123456789012345678
0 ..tt..r...........h
1 ...................
2 .................r.
3 ......f..........r.
4 h..................
5 ...................
6 .................hf
7 .............tt....
8 .................f.
9 ...................
0 ...................
1 ...................
2 h.......f..........
3 ....f......rt......
4 hr........r.tr.....

Turn = 16.
  0123456789012345678
0 ..tt...r..........h
1 ...................
2 ................r..
3 ......f.........r..
4 h..................
5 ...................
6 .................hf
7 .............tt....
8 .................f.
9 ...................
0 ...................
1 ...................
2 h.......f..r.......
3 ....f.......t......
4 rr.........rrr.....

Turn = 17.
  0123456789012345678
0 ..tt....r.........h
1 ...................
2 ...............r...
3 ......f........r...
4 h..................
5 ...................
6 .................hf
7 .............tt....
8 .................f.
9 ...................
0 ...................
1 ...........r.......
2 h.......f..........
3 ....f.......t......
4 rr.........rrr.....

*** Darwin 19x17 ***
Turn = 0.
  01234567890123456
0 .f...............
1 .....f...........
2 ....t............
3 .......t..h......
4 ..............h..
5 ..r..........h...
6 .........r..f....
7 ...............t.
8 ................f
9 ....r............
0 .......h.........
1 f.r..............
2 ...h.............
3 ...........f.....
4 ........r........
5 .h...............
6 ............f....
7 .........h.......
8 f.....f......t...

Turn = 1.
  01234567890123456
0 .f...............
1 .....f...........
2 ....t............
3 .......t.h.......
4 .................
5 ..............h..
6 ..r.....r...fh...
7 ...............t.
8 ....r...........f
9 .................
0 ..r..............
1 f......h.........
2 ....h............
3 ...........f.....
4 .......r.........
5 ..h..............
6 ............f....
7 ........h........
8 f.....f......t...

Turn = 2.
  01234567890123456
0 .f...............
1 .....f...........
2 ....t............
3 .......th........
4 .................
5 .................
6 .......r....f.h..
7 ..r.r........h.t.
8 ................f
9 ..r..............
0 .................
1 f................
2 .....h.h.........
3 ...........f.....
4 ......r..........
5 ...h.............
6 ............f....
7 .......h.........
8 f.....f......t...

Turn = 3.
  01234567890123456
0 .f...............
1 .....f...........
2 ....t............
3 .......th........
4 .................
5 .................
6 ....r.r.....f....
7 ..............ht.
8 ..r..........h..f
9 ..r..............
0 .................
1 f................
2 ......h..........
3 .......h...f.....
4 .....r...........
5 ....h............
6 ............f....
7 ......h..........
8 f.....f......t...

Turn = 4.
  01234567890123456
0 .f...............
1 .....f...........
2 ....t............
3 .......tt........
4 .................
5 ....r............
6 .....r......f....
7 ...............t.
8 ..r...........h.f
9 ...r.........h...
0 .................
1 f................
2 .......h.........
3 ...........f.....
4 ....r..h.........
5 .....h...........
6 ............f....
7 .....h...........
8 f.....f......t...

Turn = 5.
  01234567890123456
0 .f...............
1 .....f...........
2 ....t............
3 .......tt........
4 ....r............
5 .................
6 ....r.......f....
7 ...............t.
8 ...r............f
9 ....r.........h..
0 .............h...
1 f................
2 ........h........
3 ...........f.....
4 ...r.............
5 ......hh.........
6 ............f....
7 ....h............
8 f.....f......t...

Turn = 6.
  01234567890123456
0 .f...............
1 .....f...........
2 ....t............
3 ....r..tt........
4 .................
5 .................
6 ...r........f....
7 ...............t.
8 ....r...........f
9 .....r...........
0 ..............h..
1 f............h...
2 .........h.......
3 ...........f.....
4 ..r..............
5 ......h..........
6 .......h....f....
7 ...h.............
8 f.....f......t...

Turn = 7.
  01234567890123456
0 .f...............
1 .....f...........
2 ....r............
3 ....r..tt........
4 .................
5 .................
6 ..r.........f....
7 ...............t.
8 .....r..........f
9 ......r..........
0 .................
1 f.............h..
2 ..........h..h...
3 ...........f.....
4 .r...............
5 .......h.........
6 ............f....
7 ..h....h.........
8 f.....f......t...

Turn = 8.
  01234567890123456
0 .f...............
1 .....f...........
2 ...rr............
3 .......tt........
4 .................
5 .................
6 .r..........f....
7 ...............t.
8 ......r.........f
9 .......r.........
0 .................
1 f................
2 ...........h..h..
3 ...........f.h...
4 r................
5 ........h........
6 ............f....
7 .h...............
8 f.....fh.....t...

Turn = 9.
  01234567890123456
0 .f...............
1 ....rf...........
2 ..r..............
3 .......tt........
4 .................
5 .................
6 r...........f....
7 ...............t.
8 .......r........f
9 ........r........
0 .................
1 f................
2 ............h....
3 ...........f..h..
4 r............h...
5 .........h.......
6 ............f....
7 h................
8 f.....fh.....t...

Turn = 10.
  01234567890123456
0 .f..r............
1 .....f...........
2 .r...............
3 .......tt........
4 .................
5 .................
6 r...........f....
7 ...............t.
8 ........r.......f
9 .........r.......
0 .................
1 f................
2 .............h...
3 r..........f.....
4 ..............h..
5 ..........h..h...
6 ............f....
7 h................
8 f.....fh.....t...

Turn = 11.
  01234567890123456
0 .f..r............
1 .....f...........
2 r................
3 .......tt........
4 .................
5 r................
6 ............f....
7 ...............t.
8 .........r......f
9 ..........r......
0 .................
1 f................
2 r.............h..
3 ...........f.....
4 .................
5 ...........h..h..
6 ............fh...
7 h................
8 f.....fh.....t...

Turn = 12.
  01234567890123456
0 .f...r...........
1 .....f...........
2 r................
3 .......tt........
4 r................
5 .................
6 ............f....
7 ...............t.
8 ..........r.....f
9 ...........r.....
0 .................
1 r................
2 r..............h.
3 ...........f.....
4 .................
5 ............h....
6 ............f.h..
7 h............t...
8 f.....fh.....t...

Turn = 13.
  01234567890123456
0 .f....r..........
1 r....f...........
2 .................
3 r......tt........
4 .................
5 .................
6 ............f....
7 ...............t.
8 ...........r....f
9 ............r....
0 .................
1 r................
2 r...............h
3 ...........f.....
4 .................
5 .............h...
6 ............f....
7 h............th..
8 f.....fh.....t...

Turn = 14.
  01234567890123456
0 rf.....r.........
1 .....f...........
2 r................
3 .......tt........
4 .................
5 .................
6 ............f....
7 ...............t.
8 ............r...f
9 .............r...
0 .................
1 .r...............
2 r...............h
3 ...........f.....
4 .................
5 ..............h..
6 ............f....
7 h............tt..
8 f.....fh.....t...

Turn = 15.
  01234567890123456
0 rf......r........
1 r....f...........
2 .................
3 .......tt........
4 .................
5 .................
6 ............f....
7 ...............t.
8 .............r..f
9 ..............r..
0 .................
1 r.r..............
2 ................h
3 ...........f.....
4 .................
5 ...............h.
6 ............f....
7 h............tt..
8 f.....fh.....t...

*** Darwin 18x18 ***
Turn = 0.
  012345678901234567
0 ......r...........
1 ..t...............
2 .......f..........
3 .r............r...
4 ..........h....t..
5 ................h.
6 ..................
7 r...........f.....
8 ...r..............
9 ...........f.....r
0 ......h...........
1 .....r............
2 .........h........
3 ........h.........
4 r.................
5 ..............t...
6 .f...........t....
7 ..t...............

Turn = 2.
  012345678901234567
0 ....r.............
1 ..t...............
2 .......f..h.......
3 ................r.
4 ...............t..
5 .r................
6 r.................
7 ............f...h.
8 .................r
9 .....r.....f......
0 ...r....h.........
1 ..................
2 r......h..........
3 ......h...........
4 ..................
5 ..............t...
6 .f...........t....
7 ..t...............

Turn = 4.
  012345678901234567
0 ..r.......h.......
1 ..t...............
2 .......f..........
3 .................r
4 r..............t..
5 ..................
6 .................r
7 .r...r......f.....
8 ..................
9 ...........f....h.
0 r.........h.......
1 ..................
2 ...r.h............
3 ....h.............
4 ..................
5 ..............t...
6 .f...........t....
7 ..t...............

Turn = 6.
  012345678901234567
0 r.........h.......
1 ..t...............
2 r......f..........
3 ..................
4 ...............t.r
5 .....r...........r
6 ..................
7 ............f.....
8 r.................
9 .r.........f......
0 ............h.....
1 ................h.
2 ...h..............
3 ...h..............
4 ...r..............
5 ..............t...
6 .f...........t....
7 ..t...............

Turn = 8.
  012345678901234567
0 r.........h.......
1 r.t...............
2 .......f..........
3 .....r............
4 ...............rrr
5 ..................
6 r.................
7 ............f.....
8 ..................
9 ...........f......
0 ..............h...
1 .r................
2 .h................
3 .h..............h.
4 ..................
5 ..............t...
6 .f.r.........t....
7 ..t...............

Turn = 10.
  012345678901234567
0 r.........h.......
1 .r.r.r............
2 .......f.........r
3 ...............rr.
4 r.................
5 ..................
6 ..................
7 ............f.....
8 ..................
9 ...........f......
0 ................h.
1 ..................
2 rr................
3 h.................
4 ..................
5 ..............t.h.
6 .f...........t....
7 ..tt..............

Turn = 12.
  012345678901234567
0 r....r....h......r
1 ...r.r.........rr.
2 r......f..........
3 ..................
4 ..................
5 ..................
6 ..................
7 ............f.....
8 ..................
9 ...........f......
0 r................h
1 ..................
2 ..................
3 h.................
4 .r................
5 ..............t...
6 .f...........t....
7 ..tt............h.

Turn = 14.
  012345678901234567
0 r..r......h....rrr
1 r....r.r..........
2 .......f..........
3 ..................
4 ..................
5 ..................
6 ..................
7 ............f.....
8 r.................
9 ...........f......
0 .................h
1 ..................
2 ..................
3 h.................
4 ..................
5 .r............t...
6 r............t....
7 ..tt............h.

*** Darwin 19x20 ***
Turn = 0.
  01234567890123456789
0 ............t.......
1 ......t.............
2 .t..................
3 ....f...............
4 .........h..........
5 .....t............f.
6 ...............h....
7 ...r.........t......
8 .......h............
9 .h..................
0 ..............f.....
1 ..................r.
2 ...................f
3 ....................
4 ....h...............
5 ....................
6 ...............f....
7 r..........h........
8 ..f.....h...........

Turn = 3.
  01234567890123456789
0 ............t.......
1 ......t.............
2 .t..................
3 ....f...............
4 ............h.......
5 .....t.h..........f.
6 .h................h.
7 .............t......
8 ....................
9 ....................
0 ...r..........f.....
1 ...............r....
2 ...................f
3 ....................
4 .......h............
5 ........h...........
6 ...............f....
7 ....................
8 r.f........h........

Turn = 6.
  01234567890123456789
0 ............t.......
1 ......t.............
2 .t.....h............
3 .h..f...............
4 ...............h....
5 .....t............f.
6 ...................h
7 .............t......
8 ....................
9 ....................
0 ..............f.....
1 ............r.......
2 ...................f
3 ...r....h...........
4 ..........h.........
5 ....................
6 ...............f....
7 r...................
8 ..f........h........

Turn = 9.
  01234567890123456789
0 .......h....t.......
1 ......t.............
2 .t..................
3 .t..f...............
4 ..................h.
5 .....t............f.
6 ...................h
7 .............t......
8 ....................
9 ....................
0 ........h.....f.....
1 .........r..........
2 ...................f
3 ....................
4 r............h......
5 ....................
6 ...r...........f....
7 ....................
8 ..f........h........

Turn = 12.
  01234567890123456789
0 .......h....t.......
1 ......t.............
2 .t..................
3 .t..f...............
4 ...................h
5 .....t............f.
6 ...................h
7 ........h....t......
8 ....................
9 ....................
0 ..............f.....
1 r.....r.............
2 ...................f
3 ....................
4 ................h...
5 ....................
6 ...............f....
7 ....................
8 ..fr.......h........

Turn = 15.
  01234567890123456789
0 .......h....t.......
1 ......t.............
2 .t..................
3 .t..f...............
4 ........h..........h
5 .....t............f.
6 ...................h
7 .............t......
8 r...................
9 ....................
0 ..............f.....
1 ...r................
2 ...................f
3 ....................
4 ...................h
5 ....................
6 ...............f....
7 ....................
8 ..rr.......h........

Turn = 18.
  01234567890123456789
0 .......h....t.......
1 ......t.h...........
2 .t..................
3 .t..f...............
4 ...................h
5 r....t............f.
6 ...................h
7 .............t......
8 ....................
9 ....................
0 ..............f.....
1 r...................
2 ...................f
3 ....................
4 ...................h
5 ....................
6 ...............f....
7 ....................
8 .r..r......h........
