*** Darwin 3x30 ***
Turn = 0.
  012345678901234567890123456789
0 ..fh....r.t..r.h....f..r......
1 .r.............hf.....rh..h..f
2 ..........t.h.tf....r.....f...

*** Darwin 2x7 ***
Turn = 0.
  0123456
0 ttrftht
1 trhrhft

*** Darwin 7x13 ***
Turn = 0.
  0123456789012
0 ........f.hh.
1 .....r.....ff
2 frh.......f.r
3 f.rr.h...ff..
4 f.....rf...ht
5 .f.t.........
6 .f.r....h....

*** Darwin 7x36 ***
Turn = 0.
  012345678901234567890123456789012345
0 ..r.......h.....t.h......t..........
1 .t...r....f.f...f.r......hf.ff......
2 ........ht..f..................f.r..
3 r.rr.rt.........tf...t.t............
4 .....................f..r...fh......
5 .hh...h....h.f.h...................t
6 ......r........r..t....h........r...

*** Darwin 4x27 ***
Turn = 0.
  012345678901234567890123456
0 ...........................
1 ...............h.........h.
2 .........r...r.............
3 ...............f...........

Turn = 12.
  012345678901234567890123456
0 r..........................
1 ...h......................h
2 .........................r.
3 ...............f...........

*** Darwin 38x2 ***
Turn = 0.
  01
0 f.
1 f.
2 ..
3 r.
4 t.
5 r.
6 .t
7 tt
8 .h
9 ff
0 ..
1 .f
2 ..
3 .r
4 ..
5 t.
6 .f
7 r.
8 ..
9 .h
0 ..
1 f.
2 f.
3 ..
4 ..
5 .f
6 .h
7 tr
8 ft
9 .t
0 ..
1 ..
2 ..
3 t.
4 rt
5 ft
6 ..
7 tf

Turn = 15.
  01
0 rr
1 ..
2 ..
3 r.
4 .r
5 .r
6 r.
7 rt
8 tt
9 ..
0 ..
1 r.
2 .r
3 ..
4 ..
5 ..
6 .f
7 r.
8 ..
9 r.
0 ..
1 ..
2 .r
3 .r
4 r.
5 r.
6 rr
7 tt
8 tt
9 tt
0 ..
1 ..
2 ..
3 ..
4 tt
5 tt
6 ..
7 tt

*** Darwin 30x3 ***
Turn = 0.
  012
0 r..
1 .f.
2 .tr
3 .f.
4 ..t
5 ...
6 ..t
7 .ff
8 .t.
9 .r.
0 t.t
1 ..h
2 ..h
3 hh.
4 rhf
5 .f.
6 f.h
7 ff.
8 th.
9 .tr
0 .h.
1 ..t
2 hhr
3 tr.
4 ...
5 .r.
6 ...
7 .h.
8 ...
9 .f.

*** Darwin 22x6 ***
Turn = 0.
  012345
0 .r....
1 .f....
2 ...th.
3 ....h.
4 ......
5 ..t.t.
6 .r...r
7 ...r..
8 ....r.
9 ..f...
0 .f....
1 h..rf.
2 ...f..
3 r..h..
4 ....r.
5 t.r...
6 ..t...
7 h.fh..
8 ......
9 ......
0 f.....
1 ..t.h.

*** Darwin 13x16 ***
Turn = 0.
  0123456789012345
0 .h.f.h.fr.t..tr.
1 ......h......t.t
2 ...t..........h.
3 ...r.......hff.f
4 .....f.......h..
5 ....f...........
6 ......th..hh....
7 .....ft.tf....r.
8 ................
9 ......h.r.r.....
0 ..f..r...t......
1 ....t........r..
2 h.....h.........

*** Darwin 35x27 ***
Turn = 0.
  012345678901234567890123456
0 ...........................
1 ...........................
2 ...........................
3 ....................f......
4 r...........r..............
5 t.r....................r...
6 .........r..t..............
7 ............h..rf..........
8 ..........t......f.....t...
9 ........h...f..............
0 ...f.......................
1 ..........r.............h..
2 ..t........................
3 ...t..r....................
4 ...........................
5 ...........................
6 .......................r...
7 ..............r.......r....
8 .......t...................
9 ............r..............
0 ..........h................
1 ...........................
2 ...........................
3 .r..........h...........h..
4 .r.........................
5 .f.....................t...
6 r..............r......t.f..
7 ...........................
8 .......h.h...t.............
9 .......r...................
0 ...h......r................
1 ..................r...f....
2 ....r........f.............
3 ...........................
4 ...........................

*** Darwin 14x15 ***
Turn = 0.
  012345678901234
0 .h...........h.
1 ...............
2 .h.............
3 ............r..
4 ...............
5 ..t............
6 ...r..........t
7 .........r.....
8 .rh........f...
9 ...........t...
0 ..t...........r
1 .th............
2 ...............
3 .....r..t.h.ht.

Turn = 3.
  012345678901234
0 ....h.....h....
1 ...............
2 h..............
3 ...............
4 .........r.....
5 ..t............
6 ..t.........r.t
7 ...............
8 ...........f...
9 r.t........t...
0 ..t........r...
1 .tt............
2 ...............
3 ...r....tth..t.

Turn = 6.
  012345678901234
0 .......hh......
1 .........r.....
2 h..............
3 ...............
4 ...............
5 ..t............
6 ..t...........t
7 ...............
8 ...........t...
9 ..t........tr..
0 ..t.....r......
1 .tt............
2 r..............
3 r.......ttt..t.
