15

27 28
22
f 13 24 w
f 18 22 n
t 21 19 w
t 12 5 n
t 19 15 e
r 21 11 s
f 5 26 s
h 24 2 n
t 2 20 n
r 0 18 n
h 14 19 s
t 18 17 n
f 17 12 n
t 12 14 n
t 1 13 w
r 16 2 e
r 5 23 n
t 16 18 s
f 8 0 w
r 21 15 e
f 16 23 n
f 18 15 e
29 13

32 32
26
f 14 30 w
f 16 7 s
t 28 26 w
h 27 16 s
f 20 7 n
h 30 30 n
f 28 31 w
t 10 30 e
t 11 28 w
f 12 26 e
t 12 21 n
t 7 12 w
r 23 0 e
r 17 29 w
t 14 12 w
t 19 18 e
f 16 23 w
f 3 19 e
r 31 21 n
r 17 24 n
f 22 14 w
r 23 4 w
t 6 0 w
f 12 9 w
r 23 27 n
r 20 21 e
29 10

32 22
25
f 15 20 n
t 10 12 s
h 24 16 e
r 18 2 n
t 18 11 n
t 11 9 w
f 21 10 n
r 9 2 w
t 12 1 w
t 10 21 e
r 4 4 n
t 26 14 e
t 3 11 s
t 21 20 s
h 30 6 n
h 9 0 e
f 20 20 w
r 29 8 e
f 3 3 e
r 17 2 s
h 10 0 w
t 14 4 s
r 5 4 n
t 3 4 w
r 17 10 n
29 15

25 33
33
h 17 19 n
r 7 8 w
f 3 10 e
r 4 12 s
r 0 30 n
r 22 9 w
f 4 18 e
f 12 7 w
t 22 10 s
h 16 20 w
t 10 27 e
h 6 26 e
r 21 27 s
h 21 11 w
h 16 23 s
h 21 0 s
t 20 14 w
t 21 23 w
h 15 9 s
t 4 20 s
h 20 29 w
f 11 7 w
t 24 4 e
t 13 14 n
f 17 17 s
f 2 2 e
r 10 0 w
f 13 25 n
f 19 18 n
h 4 25 w
f 21 11 s
t 20 19 w
f 12 13 n
26 10

25 33
30
t 24 20 w
t 24 13 n
t 18 32 n
r 24 27 e
f 11 1 w
f 1 29 s
f 2 23 w
f 16 6 w
t 5 17 e
r 5 31 n
t 24 7 e
t 8 0 s
h 14 29 w
r 20 9 s
r 2 22 e
f 15 5 e
h 3 13 e
t 7 20 e
h 19 23 e
r 22 26 w
h 21 14 e
t 21 7 w
t 3 26 s
t 12 5 s
r 0 21 s
r 19 2 s
f 2 4 e
r 6 5 s
t 18 28 e
h 14 17 e
32 31

25 26
28
h 7 25 w
h 4 15 e
f 3 6 s
t 18 18 s
t 2 3 w
t 12 22 n
f 23 25 w
f 18 23 e
h 0 13 e
t 1 25 e
f 9 25 s
t 19 8 s
r 5 25 w
t 8 20 s
h 20 2 s
r 21 13 w
r 2 20 w
h 7 7 s
t 7 5 s
r 22 21 e
f 1 5 s
h 16 4 e
r 12 12 n
r 18 18 e
f 0 23 e
r 6 17 s
t 14 14 s
t 23 10 s
28 18

33 33
33
f 13 7 s
f 0 10 n
f 2 21 s
h 15 10 s
h 18 1 w
r 4 11 e
t 22 1 n
f 6 21 w
h 3 25 s
t 16 3 e
t 28 1 s
t 8 26 e
f 12 24 w
r 30 1 s
t 16 10 n
t 27 28 n
t 23 13 s
t 21 25 s
f 2 13 w
r 31 28 e
h 19 6 e
r 8 26 s
f 3 5 w
h 3 0 s
h 25 11 e
r 19 30 w
t 0 11 n
t 32 22 w
h 20 28 e
f 31 9 w
t 26 13 s
h 0 27 s
f 15 14 n
26 29

27 25
22
h 13 24 s
r 18 4 s
h 12 16 n
f 12 17 e
h 23 20 s
f 2 16 e
h 13 18 w
t 20 11 e
f 3 10 e
t 9 17 e
r 21 11 e
t 16 12 s
h 6 20 e
h 17 14 s
f 8 9 e
f 5 19 e
f 5 7 n
r 7 12 n
h 7 8 n
f 13 9 n
f 3 23 e
t 0 2 w
25 26

27 22
26
f 14 5 s
f 11 12 w
f 16 14 w
f 21 19 e
f 15 0 w
f 21 13 s
h 16 1 s
t 3 20 w
f 4 21 e
h 23 9 w
r 15 13 s
t 2 13 n
h 17 19 w
t 2 7 n
t 17 10 n
h 20 14 w
r 21 14 e
f 25 10 e
f 16 6 n
h 3 6 w
f 5 7 n
h 3 7 s
h 11 7 w
t 1 7 s
h 6 18 n
h 10 14 n
32 33

31 24
33
h 10 10 s
r 4 7 e
t 22 9 e
h 28 2 e
f 24 8 w
r 22 19 n
h 1 4 e
t 20 11 s
t 27 5 s
f 13 14 w
r 3 1 n
f 4 17 w
f 18 5 w
h 24 21 s
h 11 12 e
h 21 15 e
t 27 19 n
r 18 20 w
t 23 20 w
f 12 4 n
r 30 13 s
r 19 8 e
f 23 7 w
h 28 22 w
h 29 20 n
t 8 18 e
r 16 14 n
r 23 23 w
t 29 3 w
t 14 17 w
t 26 12 n
f 5 20 w
t 0 9 n
27 22

27 26
30
f 13 11 s
h 15 10 s
f 21 22 w
h 26 13 w
f 2 13 n
r 17 2 s
h 10 23 n
h 4 21 n
h 20 24 w
f 14 24 s
h 15 13 n
f 10 5 w
r 3 25 w
f 5 4 e
h 19 21 e
r 2 2 s
t 16 22 n
h 17 24 s
t 2 5 s
r 21 18 n
h 0 22 w
r 0 20 n
t 4 10 n
r 5 11 e
f 22 25 s
h 14 23 n
h 6 25 w
r 8 13 s
r 9 9 e
r 15 24 e
24 30

29 30
28
f 28 2 n
t 12 1 w
t 18 27 n
r 18 20 n
h 8 5 e
h 5 24 w
h 23 7 s
r 10 24 n
t 11 28 e
r 19 6 w
h 4 5 s
f 21 20 w
r 25 14 n
h 7 7 s
t 23 1 e
h 19 24 e
h 4 17 w
f 1 5 w
t 7 3 n
t 4 9 w
h 25 7 w
f 17 28 n
f 19 4 s
t 10 24 n
t 0 20 n
f 5 23 w
h 3 23 s
h 3 7 s
23 15

25 33
27
f 23 23 n
r 11 14 w
h 4 11 e
h 17 13 n
r 5 3 w
f 9 8 n
t 8 3 n
t 21 10 s
t 24 27 n
f 17 32 s
f 20 15 e
t 20 0 n
h 11 6 n
t 18 3 w
h 8 10 s
r 15 18 s
t 9 10 w
f 19 17 n
f 0 29 w
t 24 9 s
r 18 5 s
t 5 2 n
h 24 12 e
f 7 22 s
t 15 23 w
h 13 19 n
r 21 0 w
31 25

29 26
25
h 7 19 s
f 22 16 w
r 22 6 s
r 8 19 w
r 17 10 e
r 7 23 s
t 7 8 s
f 2 13 n
t 5 1 w
r 1 0 w
t 25 9 n
t 7 9 s
t 11 15 w
t 24 4 n
f 17 12 n
h 11 9 w
t 0 23 n
h 3 13 s
h 14 21 s
h 10 16 w
h 17 2 n
f 0 16 s
f 17 11 s
f 1 2 n
r 0 0 n
29 16

28 30
28
h 12 5 e
t 27 15 w
r 27 0 s
f 10 0 e
t 9 6 n
r 5 2 w
t 20 18 e
t 18 18 n
t 5 24 w
r 24 26 n
r 3 10 s
r 10 18 n
h 5 9 e
r 9 4 n
h 24 0 e
r 5 11 n
r 17 23 n
r 7 20 w
t 21 13 w
t 23 3 w
h 12 9 e
f 17 17 n
f 10 23 e
h 16 15 n
h 9 28 s
f 20 29 s
r 2 0 s
r 13 14 w
30 30
