*** Darwin 12x5 ***
Turn = 0.
  01234
0 .....
1 .....
2 r....
3 .....
4 .....
5 .....
6 .....
7 .....
8 .....
9 .....
0 .....
1 .....

Turn = 10.
  01234
0 .....
1 .....
2 .....
3 .....
4 .....
5 .....
6 .....
7 .....
8 .....
9 .....
0 .....
1 r....

Turn = 20.
  01234
0 .....
1 .....
2 .....
3 .....
4 r....
5 .....
6 .....
7 .....
8 .....
9 .....
0 .....
1 .....

Turn = 30.
  01234
0 ....r
1 .....
2 .....
3 .....
4 .....
5 .....
6 .....
7 .....
8 .....
9 .....
0 .....
1 .....

Turn = 40.
  01234
0 .....
1 .....
2 .....
3 .....
4 .....
5 .....
6 .....
7 .....
8 .....
9 .....
0 ....r
1 .....

Turn = 50.
  01234
0 .....
1 .....
2 .....
3 .....
4 ....r
5 .....
6 .....
7 .....
8 .....
9 .....
0 .....
1 .....

*** Darwin 2x14 ***
Turn = 0.
  01234567890123
0 ......f.f....f
1 ..h.....r.hh.h

Turn = 9.
  01234567890123
0 .......rr...rr
1 ........r.hh.h

Turn = 18.
  01234567890123
0 rr...r...rr..h
1 ..........rr..

*** Darwin 4x5 ***
Turn = 0.
  01234
0 .....
1 .....
2 .....
3 h....

Turn = 7.
  01234
0 .....
1 .....
2 .....
3 h....

Turn = 14.
  01234
0 .....
1 .....
2 .....
3 h....

Turn = 21.
  01234
0 .....
1 .....
2 .....
3 h....

Turn = 28.
  01234
0 .....
1 .....
2 .....
3 h....

Turn = 35.
  01234
0 .....
1 .....
2 .....
3 h....

Turn = 42.
  01234
0 .....
1 .....
2 .....
3 h....

Turn = 49.
  01234
0 .....
1 .....
2 .....
3 h....

*** Darwin 10x9 ***
Turn = 0.
  012345678
0 .........
1 .....h...
2 .f.......
3 .........
4 .........
5 ........r
6 .........
7 .........
8 .........
9 .........

Turn = 5.
  012345678
0 .....h...
1 .........
2 .f.......
3 .........
4 .........
5 .........
6 .........
7 .........
8 .........
9 ........r

Turn = 10.
  012345678
0 .....h...
1 .........
2 .f.......
3 .........
4 .........
5 .........
6 .........
7 .........
8 .........
9 ...r.....

Turn = 15.
  012345678
0 .....h...
1 .........
2 .f.......
3 .........
4 .........
5 .........
6 .........
7 .........
8 .........
9 r........

Turn = 20.
  012345678
0 .....h...
1 .........
2 .f.......
3 .........
4 .........
5 r........
6 .........
7 .........
8 .........
9 .........

Turn = 25.
  012345678
0 r....h...
1 .........
2 .f.......
3 .........
4 .........
5 .........
6 .........
7 .........
8 .........
9 .........

*** Darwin 12x6 ***
Turn = 0.
  012345
0 ......
1 ......
2 r.....
3 ....rr
4 ......
5 ...rtr
6 .t....
7 ..t.h.
8 ...r..
9 .f....
0 ......
1 ..t...

Turn = 11.
  012345
0 r...rr
1 ....r.
2 ......
3 ......
4 ......
5 .t....
6 rt....
7 ..t...
8 ......
9 .f....
0 .....r
1 ..tr..

Turn = 22.
  012345
0 .....r
1 ......
2 ......
3 ......
4 r.....
5 tt....
6 .t....
7 r.t...
8 ..t...
9 .f..rr
0 ......
1 ....r.

*** Darwin 3x5 ***
Turn = 0.
  01234
0 .....
1 ..h..
2 .....

Turn = 11.
  01234
0 .....
1 ....h
2 .....

Turn = 22.
  01234
0 .....
1 ....h
2 .....

*** Darwin 10x5 ***
Turn = 0.
  01234
0 r....
1 f....
2 .....
3 h....
4 h....
5 r....
6 .....
7 .....
8 .....
9 .....

Turn = 15.
  01234
0 .....
1 f....
2 r....
3 .r...
4 .r...
5 .....
6 .....
7 .....
8 .....
9 h....

*** Darwin 14x5 ***
Turn = 0.
  01234
0 .f...
1 r....
2 h....
3 .....
4 .....
5 .....
6 .....
7 .r...
8 .t...
9 .....
0 .....
1 .f...
2 .....
3 fr...

Turn = 11.
  01234
0 rr..r
1 ...r.
2 .....
3 .....
4 .....
5 r....
6 .....
7 .....
8 .t...
9 .....
0 .....
1 .....
2 ....r
3 f....

Turn = 22.
  01234
0 ...r.
1 ....r
2 r...r
3 .....
4 .....
5 .....
6 .....
7 .tr..
8 .t...
9 .....
0 .....
1 .....
2 .....
3 f....

Turn = 33.
  01234
0 .....
1 .....
2 .....
3 ....r
4 .....
5 r....
6 .....
7 .t...
8 tt...
9 .....
0 .....
1 .....
2 ....r
3 f...r

*** Darwin 6x4 ***
Turn = 0.
  0123
0 hh.f
1 ...h
2 ..f.
3 ...f
4 ..ff
5 r..r

Turn = 14.
  0123
0 ..hr
1 rrrr
2 ..f.
3 ...f
4 ..ff
5 ....

Turn = 28.
  0123
0 r.rr
1 .r..
2 r...
3 rr..
4 r...
5 r..r

*** Darwin 5x14 ***
Turn = 0.
  01234567890123
0 h..frhffh.fr.t
1 ..............
2 ..............
3 ..............
4 ..............

Turn = 13.
  01234567890123
0 ......r.....r.
1 ..rr.........r
2 ..............
3 .....r........
4 ...rrr..h.....

*** Darwin 14x11 ***
Turn = 0.
  01234567890
0 ..........r
1 ......t.t..
2 ...........
3 ...........
4 ...........
5 .........h.
6 .......t...
7 ......f....
8 ...........
9 ..t........
0 ...........
1 .........t.
2 .........r.
3 ...........

Turn = 14.
  01234567890
0 ...........
1 ......t.t..
2 ...........
3 ...........
4 ...........
5 ...........
6 .......t...
7 ......f....
8 ...........
9 ..t........
0 .........tt
1 .........t.
2 ...........
3 r..........
