15

184 96
7
h 118 89 w
h 41 32 n
h 162 55 e
r 169 82 w
t 4 21 n
r 54 19 n
f 82 16 s
30 4

159 91
5
r 13 40 s
f 0 84 e
h 137 15 w
h 91 6 e
r 61 9 n
80 12

120 120
14
h 46 20 w
f 98 19 w
f 69 108 e
h 70 118 e
t 91 80 e
h 6 65 w
t 42 101 e
r 74 66 s
f 48 94 w
f 80 95 s
f 112 58 e
r 108 73 w
r 25 79 s
r 26 10 s
13 5

68 65
9
r 25 11 s
r 28 52 e
h 18 12 e
t 25 0 e
t 41 13 s
f 3 52 s
t 50 1 e
r 37 32 s
t 42 19 w
43 2

38 50
26
h 0 3 n
t 4 18 s
r 3 18 w
t 1 0 w
r 0 18 n
r 16 39 e
t 11 38 e
h 1 27 n
t 18 2 e
r 7 20 n
h 37 4 s
t 5 32 e
h 4 32 e
h 23 25 w
r 24 28 s
f 21 45 e
r 21 19 w
r 10 12 e
h 17 5 e
f 22 35 s
t 28 46 w
h 31 12 s
h 18 6 e
h 7 25 e
t 37 5 s
f 17 35 n
57 3

83 105
18
r 59 49 w
f 9 49 e
f 60 10 e
t 47 67 s
h 80 19 e
r 65 103 w
r 72 6 s
f 59 40 e
r 6 35 w
r 12 60 s
t 75 93 n
t 65 37 e
h 69 29 n
r 30 50 s
t 4 13 s
f 64 65 s
f 2 88 w
r 82 79 w
87 17

99 119
2
h 12 75 s
t 64 53 w
24 18

98 64
28
r 38 7 w
f 71 12 e
h 96 5 s
r 42 58 e
r 78 49 s
r 85 10 n
h 3 0 n
f 67 49 w
r 72 29 e
t 6 22 n
t 57 32 n
r 60 33 n
h 60 60 w
f 59 43 n
r 70 34 n
t 91 31 s
r 0 18 n
t 90 57 s
h 4 16 e
h 29 5 e
t 75 15 w
h 75 6 e
t 47 41 e
t 72 5 n
t 47 59 w
r 28 61 e
t 37 15 e
h 77 54 e
20 13

110 158
21
t 36 2 w
r 82 5 n
t 101 150 w
h 23 43 s
f 26 61 e
h 59 20 s
f 86 67 s
t 40 47 s
r 24 14 n
r 27 147 e
f 59 91 s
f 86 81 s
h 22 89 e
r 107 93 e
r 108 11 s
t 16 20 s
t 91 63 e
r 35 62 w
f 9 137 s
t 10 25 n
f 10 151 w
10 18

44 187
15
f 11 28 s
f 38 10 s
t 39 145 s
t 3 89 e
t 33 106 w
r 14 114 s
f 18 66 n
t 9 128 n
r 20 163 n
t 15 47 s
f 11 132 n
h 22 52 s
t 24 154 n
r 12 159 e
r 37 46 w
55 19

97 159
15
f 50 16 e
h 47 147 s
f 93 150 s
r 36 107 s
f 96 135 n
h 49 116 w
t 85 139 w
h 8 103 e
f 67 41 n
f 5 90 w
t 5 71 n
f 83 45 w
f 35 92 n
r 93 122 s
h 31 119 n
46 11

186 183
1
f 170 37 e
11 11

101 63
28
t 10 49 e
f 61 51 n
t 83 59 w
r 60 55 e
f 93 11 n
r 88 22 s
t 32 3 s
t 92 11 n
f 25 0 n
f 54 30 w
r 97 0 s
f 67 19 w
r 18 13 n
f 89 51 w
h 72 5 s
r 74 4 s
t 45 0 e
f 70 35 w
r 13 11 n
h 95 21 s
r 8 19 n
t 25 13 w
r 22 30 n
t 98 37 s
h 37 47 s
f 62 53 e
t 75 15 e
f 31 62 s
22 9

156 70
28
h 24 5 e
f 80 45 s
t 37 46 s
f 42 55 n
r 21 26 e
h 10 52 w
h 97 16 s
f 1 56 e
f 56 4 e
f 17 4 s
r 16 59 n
r 21 19 s
f 88 9 n
r 140 52 w
f 134 8 e
t 20 28 w
t 49 34 s
t 62 19 n
r 153 27 n
r 101 16 w
h 107 43 s
f 60 17 e
r 147 65 w
r 119 28 w
h 71 23 w
t 21 28 w
t 44 58 s
h 137 16 n
15 13

3 132
6
r 2 55 n
h 0 22 s
t 2 109 w
r 0 60 s
h 1 75 s
h 2 16 n
18 7
