13

6 7
4
f 0 0 e
r 2 3 w
h 4 2 n
t 5 6 s
3 2

9 5
3
h 2 1 e
r 4 4 n
t 6 0 w
2 3

7 8
5
f 1 1 n
t 3 6 s
r 4 2 e
h 5 3 w
f 6 5 n
4 1

5 5
3
t 0 4 w
h 2 2 e
r 4 0 n
2 1

8 6
4
f 1 1 e
h 2 4 w
r 5 5 n
t 6 3 s
6 3

10 10
6
f 0 0 e
h 2 2 s
r 5 5 w
t 8 7 n
h 6 6 e
f 9 9 s
5 2

4 7
3
h 0 0 s
r 2 5 e
t 3 3 w
4 4

6 6
2
f 1 4 w
t 4 4 e
3 1

8 5
5
r 0 0 e
f 2 1 s
h 4 4 w
t 6 0 n
f 7 4 e
4 3

7 9
6
t 1 0 n
h 3 3 e
f 5 1 s
r 4 5 w
f 6 8 n
h 6 2 e
5 3

9 6
4
r 0 0 w
f 3 2 e
h 5 4 n
t 8 5 s
7 2

5 5
3
t 0 2 e
f 2 4 s
r 3 1 w
3 1

6 7
4
f 0 0 n
r 2 2 e
h 4 4 s
t 5 6 w
5 2
