12

28 11
28
t 20 0 w
f 18 9 w
t 13 1 e
h 3 7 e
f 10 5 e
f 5 0 n
r 17 7 e
r 3 7 n
f 24 10 s
t 19 6 e
r 2 1 e
t 6 7 e
f 27 0 n
h 22 7 n
r 8 2 e
r 14 8 w
f 15 2 w
t 27 8 s
h 0 1 n
h 3 1 s
r 16 8 n
t 18 4 w
f 1 7 n
h 22 1 e
r 15 6 s
h 15 9 s
f 25 10 n
f 12 0 e
5 4

20 22
16
t 12 12 s
t 1 16 n
r 5 15 e
h 10 17 s
h 2 13 s
r 8 1 s
r 11 1 e
f 12 11 e
f 1 5 n
t 15 14 s
r 16 7 e
h 10 16 w
t 0 7 n
h 18 10 w
r 7 21 w
f 7 8 e
8 4

26 28
11
h 12 18 n
t 21 4 w
f 4 16 n
r 21 10 e
t 3 2 n
r 12 19 n
f 15 15 n
h 6 21 n
t 25 23 n
h 21 11 s
h 4 24 w
1 1

28 18
23
f 6 7 n
h 19 6 s
f 3 10 w
t 2 0 w
h 4 11 s
f 0 5 w
h 11 4 e
f 15 16 w
f 3 4 n
h 3 12 s
f 27 3 s
t 25 16 e
h 3 13 w
t 1 12 s
h 2 8 n
h 21 3 w
h 4 12 n
t 15 11 n
f 3 8 s
t 14 1 e
f 19 12 e
h 7 14 e
r 21 1 s
3 3

21 10
12
h 8 0 w
t 5 1 w
f 9 5 w
f 12 3 n
f 9 1 w
t 18 6 w
h 19 9 e
r 16 6 n
h 10 7 w
h 8 5 s
f 17 4 w
t 9 8 s
6 3

22 24
27
f 7 6 w
h 4 22 n
h 11 5 e
f 20 8 w
r 8 19 w
r 5 18 s
t 10 13 e
t 2 20 s
t 10 19 e
h 20 9 s
r 16 0 n
h 3 21 e
h 19 1 e
h 0 22 n
f 4 23 w
t 20 4 s
f 0 12 e
t 2 15 e
f 7 16 e
h 0 20 n
h 15 2 w
r 8 12 w
t 2 11 n
f 13 18 n
f 1 6 w
h 4 10 e
t 20 1 e
1 3

30 26
11
t 1 4 n
t 13 6 n
r 28 8 w
f 18 19 s
t 18 25 s
h 15 3 w
r 9 0 n
f 21 7 s
t 5 22 n
r 21 20 w
t 7 2 e
1 4

23 26
28
h 4 12 w
t 22 4 w
t 0 3 s
f 11 14 s
f 5 12 w
h 12 12 s
f 14 11 n
h 18 22 w
f 22 10 e
f 5 5 s
t 12 14 w
h 13 1 e
t 12 17 e
r 13 9 s
t 6 16 s
t 22 19 n
r 10 11 s
f 4 3 n
f 10 11 e
t 1 7 n
f 6 12 n
f 3 24 s
h 13 19 w
r 12 13 e
r 7 6 e
h 5 13 n
r 0 22 s
f 15 5 n
8 2

25 14
15
f 0 12 w
h 16 6 n
h 15 9 e
h 7 13 w
h 6 2 s
h 2 7 e
r 6 4 s
t 17 11 e
t 17 3 s
f 15 0 e
t 0 12 e
r 17 4 s
t 8 2 n
f 0 1 n
t 5 9 n
1 3

13 26
15
t 0 2 w
h 8 9 n
r 6 20 w
r 9 23 n
h 0 20 n
t 5 5 w
h 1 19 w
r 0 21 n
h 1 14 n
h 9 2 s
r 11 3 w
f 11 22 e
r 12 4 w
t 0 5 e
h 6 18 e
6 2

28 18
21
r 24 4 e
r 23 5 s
h 21 6 e
r 19 6 n
t 23 4 e
h 10 3 n
f 5 0 w
f 19 11 w
h 19 6 w
h 1 3 e
h 19 2 s
t 5 17 e
r 6 11 w
h 25 5 n
h 21 7 w
h 9 13 n
h 21 17 s
t 14 9 n
h 2 17 n
t 3 6 s
f 4 16 e
10 3

18 28
29
r 0 15 n
r 3 4 e
f 14 4 s
r 17 24 s
f 0 25 n
r 0 21 e
r 5 11 w
r 11 17 w
r 3 24 e
f 16 22 w
t 1 20 n
r 0 2 e
h 1 17 n
t 17 4 w
f 2 3 n
h 7 26 w
t 4 25 w
t 7 22 w
t 9 23 s
f 8 25 n
r 1 14 e
f 1 1 n
r 12 3 n
h 3 4 s
r 11 7 n
f 13 10 e
r 5 20 e
r 5 4 w
r 11 9 w
3 1
