15

5 5
10
t 2 2 e
f 1 1 s
h 0 4 n
r 3 3 w
f 4 0 s
h 2 1 e
t 1 3 w
r 0 0 n
f 3 4 e
t 4 4 s
6 1

7 8
8
f 5 2 n
t 1 6 e
h 6 7 w
r 0 1 s
f 2 4 e
t 6 2 s
h 3 5 n
r 4 3 e
8 1

10 10
15
r 9 1 e
t 2 5 s
f 5 5 n
h 3 8 w
t 4 4 e
h 1 1 s
f 7 9 n
t 9 9 e
r 6 6 w
h 0 0 e
f 3 3 s
r 4 7 w
h 8 2 n
t 1 8 e
r 7 4 s
2 1

6 9
7
t 0 8 n
f 2 2 e
h 3 4 s
r 4 6 w
f 1 3 n
t 5 7 e
h 2 0 s
3 1

8 8
12
h 7 5 n
f 0 0 e
t 4 4 s
r 3 6 w
f 2 2 e
h 5 7 s
r 6 1 e
t 1 3 w
h 4 5 e
f 0 6 n
t 7 2 s
r 1 1 e
9 1

12 10
10
f 10 4 w
h 5 5 s
t 11 3 e
r 2 7 n
f 6 8 s
h 4 6 w
t 9 9 e
r 1 2 s
f 3 0 e
t 8 1 w
4 1

5 4
6
t 0 3 s
r 4 0 n
f 2 1 w
h 3 2 e
f 1 0 s
t 4 3 n
7 1

9 6
5
f 6 1 s
t 7 5 e
h 3 4 n
r 8 3 w
f 1 2 s
6 1

13 7
14
r 11 6 w
t 8 2 s
f 3 4 e
h 6 5 n
t 9 1 w
h 2 3 s
r 7 6 e
t 10 3 n
f 5 2 s
h 1 0 e
f 4 5 n
t 12 4 s
r 6 1 w
h 0 3 e
8 1

6 6
9
t 5 5 n
f 4 0 e
h 2 2 s
r 0 3 w
f 3 4 e
h 1 1 n
t 2 5 w
r 5 0 s
f 0 4 n
2 1

8 5
11
h 6 4 e
t 1 3 s
f 0 2 n
r 7 1 e
t 3 4 w
f 4 0 s
h 2 3 n
t 7 2 e
f 5 1 s
h 3 0 w
r 2 1 s
5 1

11 8
7
t 10 7 w
f 6 6 n
h 1 5 e
r 8 2 s
t 3 3 e
f 5 4 n
h 4 7 w
3 1

14 10
8
h 9 0 s
f 2 9 n
t 7 6 w
r 3 1 e
f 12 8 s
h 5 3 e
t 4 4 w
f 10 7 n
4 1

9 9
6
f 3 3 s
t 8 4 e
h 1 0 n
r 6 7 w
f 7 2 e
t 4 5 n
5 1

10 7
10
h 6 1 w
t 5 5 n
f 8 3 s
r 2 6 e
t 9 0 e
h 7 4 n
f 1 2 s
r 4 6 w
t 3 3 e
h 0 1 n
6 1
