15

18 13
1
h 17 2 s
1087 14

37 17
13
f 11 5 w
t 3 9 w
r 15 2 e
f 12 0 w
r 13 10 e
r 35 13 n
f 1 0 s
t 2 11 e
f 3 8 s
r 8 2 w
f 13 9 w
h 10 16 e
f 11 12 s
981 185

15 5
45
t 5 3 w
t 8 3 s
t 14 4 e
f 11 1 n
t 2 1 n
t 13 1 n
t 5 2 w
h 6 1 w
t 10 3 n
h 14 0 w
t 5 0 n
h 0 1 n
h 2 0 w
r 2 2 e
r 13 2 n
t 0 1 s
f 5 3 w
r 3 0 w
f 14 3 s
f 5 1 w
r 13 3 s
r 10 4 w
f 13 3 s
r 3 1 e
r 6 1 n
r 8 3 e
h 4 4 n
r 11 3 s
t 13 4 e
r 9 1 w
t 1 3 e
h 7 4 w
h 14 3 s
t 6 1 e
h 2 0 w
t 3 3 s
t 5 4 s
t 1 1 s
r 12 0 w
r 12 2 n
f 3 3 s
h 1 0 e
h 9 4 e
f 3 2 w
t 3 1 e
666 71

7 34
38
r 3 25 s
h 3 28 n
r 3 10 w
t 1 13 e
f 2 8 w
r 4 22 w
t 3 16 e
t 2 22 e
r 3 2 w
r 1 22 n
t 1 28 n
f 5 28 e
h 5 7 w
r 1 23 w
r 6 23 n
h 1 22 n
t 2 26 s
h 4 30 n
t 1 20 e
h 4 28 w
f 6 6 n
h 0 8 w
t 3 22 e
f 0 5 n
h 1 8 n
f 2 30 e
h 5 29 w
r 6 26 n
h 4 27 e
t 2 31 s
r 5 6 n
f 6 4 n
r 0 24 e
r 1 9 n
r 6 0 e
t 6 3 e
r 6 28 n
t 2 2 w
1748 60

13 50
26
f 1 11 w
t 9 3 s
f 8 38 s
f 7 15 n
h 10 39 e
t 0 17 e
h 9 16 e
f 11 19 s
h 12 39 s
t 11 14 e
t 1 17 e
f 2 11 n
r 1 46 s
f 9 41 n
h 6 8 s
t 5 11 e
t 10 43 w
r 10 11 n
r 7 34 n
r 12 48 n
h 10 31 w
r 10 14 s
h 12 9 n
h 0 3 e
h 2 24 w
f 3 13 s
771 16

48 42
27
f 32 32 n
t 42 17 s
t 3 25 s
f 4 20 e
h 5 4 n
r 31 15 s
t 6 14 w
t 20 7 s
r 14 6 w
h 30 25 s
r 27 16 e
t 10 19 s
t 25 38 n
h 29 9 e
f 0 4 e
f 2 25 w
t 1 1 e
h 30 41 s
t 28 36 s
f 19 38 n
h 21 40 n
r 41 3 n
t 26 8 w
t 36 21 s
f 16 0 s
h 30 24 w
r 5 9 e
796 160

31 42
11
t 10 28 n
r 9 14 w
r 17 29 w
r 10 19 w
t 9 11 e
r 15 40 s
h 18 12 e
t 16 8 s
h 19 37 n
h 30 41 s
f 10 3 w
974 164

32 41
15
t 19 36 e
f 16 32 w
t 9 26 w
t 0 32 w
t 7 9 s
t 19 2 n
h 17 16 w
h 16 40 e
h 28 7 n
t 25 36 w
r 29 24 e
r 27 15 s
r 14 23 s
t 23 8 e
t 7 22 e
458 82

13 47
27
r 3 3 e
f 8 9 e
h 4 9 s
t 1 22 w
h 5 37 w
f 0 35 n
r 10 41 n
t 10 28 s
t 11 12 w
r 5 26 s
f 12 37 s
t 3 6 e
f 9 35 s
t 4 10 n
h 0 22 e
r 6 41 s
h 4 33 n
h 8 33 e
h 3 14 e
f 7 18 w
f 6 40 w
t 10 26 w
h 12 45 s
h 8 27 e
f 8 20 n
f 4 40 n
f 8 45 n
1788 172

40 11
39
h 27 7 s
r 14 3 n
t 1 7 s
t 27 4 s
r 34 7 w
r 16 7 e
f 36 3 n
f 25 5 w
h 2 2 s
t 11 9 e
f 36 7 n
r 34 0 w
h 13 4 w
t 34 7 e
r 32 2 s
t 11 6 w
t 31 8 s
r 38 6 w
r 22 8 e
f 33 3 s
f 25 6 e
f 26 6 n
h 30 2 n
f 37 5 n
f 1 6 n
t 10 10 n
f 26 10 n
f 5 2 w
r 31 1 s
f 9 7 w
r 7 3 w
t 17 7 s
r 21 5 s
r 22 3 w
h 21 0 n
h 13 2 e
t 1 6 s
r 0 7 w
r 7 7 s
1414 160

44 33
34
f 29 25 w
t 43 4 e
h 30 28 w
h 36 17 n
f 21 25 w
h 14 11 s
f 37 9 s
h 11 15 w
h 8 19 s
f 17 10 n
f 18 2 n
h 29 12 n
f 34 26 w
f 13 31 s
f 2 6 n
t 39 14 s
t 24 13 s
t 7 0 n
f 0 15 w
t 7 12 w
r 19 30 e
r 4 24 e
r 16 31 n
t 20 16 n
t 5 20 n
h 27 11 w
f 27 24 n
h 13 19 n
f 40 21 w
t 1 14 n
t 38 0 e
t 7 10 n
f 43 28 e
h 43 0 s
817 23

32 23
34
h 18 5 s
h 15 7 w
h 12 6 e
h 27 16 w
r 18 18 e
h 29 15 w
r 19 15 s
r 7 19 e
t 10 15 s
t 2 17 s
h 7 22 n
h 19 15 n
t 4 19 w
f 28 21 s
h 18 12 e
t 1 21 e
f 10 4 e
r 11 7 n
h 27 7 s
r 14 4 n
h 12 21 w
f 11 16 w
r 16 12 w
h 2 7 e
t 18 22 s
r 9 14 s
r 24 7 w
f 10 20 s
r 9 20 s
t 25 10 s
r 12 0 e
h 20 11 w
t 24 9 e
f 0 6 w
1419 82

7 46
24
t 1 16 e
h 5 14 n
r 0 3 n
f 0 3 e
t 1 24 e
r 1 32 e
f 4 43 n
h 5 35 w
f 3 45 n
r 1 16 s
f 4 0 n
r 6 22 w
r 2 12 w
t 6 42 s
t 0 21 e
f 4 13 s
r 2 45 w
t 4 42 s
t 2 23 e
f 1 18 n
f 0 16 s
f 2 7 w
t 2 41 e
t 2 29 s
1099 68

7 44
14
t 5 0 n
h 0 4 s
t 4 27 s
h 4 22 w
t 2 36 w
t 0 0 e
r 4 6 s
r 2 12 w
h 6 8 e
t 4 6 s
f 5 27 e
h 0 17 n
f 2 1 s
f 6 28 n
539 187

2 8
16
f 1 4 w
r 0 6 e
f 0 3 w
h 0 0 n
f 0 7 e
t 1 5 n
r 1 3 s
h 1 2 w
f 1 5 e
t 0 5 e
h 1 1 s
f 1 4 w
r 0 6 s
h 1 4 n
f 0 6 s
t 0 5 w
70 60
