15

57 170
14
t 24 122 w
h 19 108 w
f 28 74 n
r 17 31 s
t 15 108 n
t 53 80 n
t 6 38 s
t 33 32 s
h 17 1 w
f 17 96 s
t 15 168 w
t 31 0 s
t 36 51 n
f 10 23 n
839 133

199 10
23
f 141 8 w
r 120 7 e
r 71 5 e
f 41 1 n
f 140 1 e
t 151 1 s
f 35 2 e
f 150 9 s
r 6 9 w
t 66 0 e
r 186 6 s
h 46 1 n
f 181 1 w
r 90 6 w
h 18 8 e
t 35 4 s
h 89 5 w
f 34 1 e
r 175 5 s
r 60 4 s
r 35 2 s
r 96 0 w
h 52 6 w
51 39

73 168
34
r 72 108 w
h 28 10 n
r 29 20 e
f 50 138 n
f 2 45 n
f 67 166 e
f 26 68 e
f 16 144 w
r 15 134 e
t 31 23 e
h 66 154 s
r 72 3 w
t 4 63 n
h 56 54 s
f 5 130 n
f 71 159 s
t 43 35 n
f 18 65 s
h 8 33 n
r 16 93 n
t 16 131 w
f 22 87 w
f 6 87 s
f 31 161 w
h 67 136 n
f 38 147 e
t 49 60 e
t 69 27 s
h 51 157 e
h 41 130 n
t 4 52 n
f 9 167 e
r 19 128 e
r 32 130 e
1466 194

108 193
1
h 105 174 w
574 172

21 65
47
r 20 32 e
f 17 62 w
t 4 39 w
r 20 44 n
h 2 10 e
r 17 22 s
f 2 36 n
r 11 17 w
r 12 62 e
f 14 20 e
h 17 7 w
h 14 22 e
t 9 33 e
f 1 58 e
h 14 4 n
h 3 14 e
h 0 59 s
f 9 54 n
r 13 12 s
f 13 36 w
h 14 55 s
f 6 35 w
f 13 35 e
t 8 26 n
t 8 55 s
t 4 19 s
r 6 14 s
f 17 43 w
h 18 62 n
r 10 55 w
r 13 14 s
f 15 32 n
h 19 26 s
t 15 59 w
r 9 58 w
f 2 62 w
h 12 52 s
t 15 6 s
f 12 56 s
f 4 18 s
t 2 53 n
h 15 59 w
h 18 51 w
h 6 9 e
h 14 58 w
t 5 36 w
h 10 31 w
1523 88

73 50
7
h 35 6 e
f 17 36 e
t 14 34 w
h 24 27 n
r 35 3 s
t 21 43 s
h 26 10 e
3 98

53 10
3
h 34 0 e
t 31 1 w
h 51 6 e
704 10

180 21
7
r 78 2 s
h 117 14 s
h 177 6 w
f 55 8 w
h 79 11 s
f 160 20 n
f 32 10 n
1207 144

85 57
32
r 32 47 n
t 37 53 s
t 35 42 n
h 22 55 n
t 49 43 w
r 20 5 w
t 68 54 e
r 22 47 w
t 16 50 s
h 47 19 s
t 9 14 s
r 26 41 w
h 27 3 e
f 15 23 e
f 34 49 n
h 50 48 n
r 79 52 e
f 37 23 w
t 48 19 s
f 58 50 w
h 14 4 e
r 57 47 n
f 58 55 n
f 30 38 w
r 50 15 n
t 76 19 s
h 68 50 e
f 65 11 n
f 69 29 e
f 78 23 n
f 49 3 n
r 25 51 w
1895 39

41 154
20
t 36 75 w
f 35 20 n
t 26 74 w
f 5 44 n
h 36 139 w
h 33 53 s
h 24 151 w
r 7 76 s
t 37 9 e
f 38 0 n
t 5 88 s
r 15 16 n
r 13 53 n
h 35 110 w
t 7 82 n
t 3 152 n
f 36 78 e
f 9 54 s
f 13 53 n
f 40 117 w
120 34

190 41
2
r 69 8 w
h 165 31 n
1832 41

45 165
37
t 32 146 e
r 35 64 w
t 41 109 n
h 43 104 e
f 41 155 s
f 30 44 s
t 21 137 e
f 39 154 e
r 16 92 s
h 5 100 s
r 24 27 n
r 12 11 e
t 22 67 w
t 9 107 e
t 0 77 s
t 25 88 s
t 22 81 e
r 22 139 e
r 35 54 n
t 17 152 w
h 3 4 e
h 28 110 n
h 2 104 n
h 34 142 w
h 30 52 s
h 7 102 s
h 35 155 n
f 17 78 e
h 1 54 w
f 1 11 s
f 25 39 n
r 14 162 e
t 13 39 w
t 4 155 w
r 19 29 n
f 42 148 s
f 24 141 w
1440 91

182 62
22
r 75 4 s
h 67 55 n
f 95 28 w
r 77 4 s
r 171 10 n
h 138 54 s
f 3 4 s
h 52 54 e
h 146 17 e
h 121 33 w
h 109 3 s
h 141 2 w
f 96 49 n
t 162 50 s
h 83 30 n
h 177 50 n
r 18 47 e
h 162 34 e
f 27 32 n
r 52 48 s
f 107 5 e
r 106 30 w
1684 81

50 80
30
t 20 60 s
t 41 42 n
f 28 25 w
h 28 52 n
h 19 5 s
h 49 66 e
r 36 66 s
r 28 53 n
h 11 67 s
f 40 58 e
t 10 43 e
r 49 68 n
f 47 35 e
h 25 0 n
r 38 55 e
f 8 36 e
h 7 42 e
r 34 14 e
h 28 11 e
t 14 13 n
t 19 15 w
h 32 32 e
r 3 53 n
t 20 11 s
f 18 34 e
r 3 19 e
f 47 51 w
r 45 42 n
f 47 23 e
f 30 45 e
871 76

58 46
47
t 24 28 n
f 27 14 n
h 19 41 e
h 34 36 s
h 45 28 s
h 48 3 w
t 41 17 w
h 32 37 s
f 37 4 w
r 1 12 e
f 0 19 n
r 48 26 n
r 57 29 e
h 8 27 w
f 4 7 n
h 33 22 s
t 30 28 n
r 3 7 s
t 25 38 n
f 27 8 e
f 52 44 s
r 36 1 n
r 56 5 n
h 20 3 n
h 38 19 e
h 18 5 s
r 9 38 w
h 19 8 n
t 42 38 e
r 4 1 n
t 36 11 e
h 37 4 w
f 52 9 s
t 26 44 e
f 41 28 s
t 40 24 n
t 23 1 w
r 5 31 w
r 18 30 n
f 36 7 s
t 16 20 e
t 21 21 s
t 43 24 w
t 34 24 w
h 7 17 e
t 32 2 n
f 31 4 n
770 144
