20

18 12
17
r 0 0 s
h 11 3 e
t 6 1 e
h 3 10 s
f 7 3 w
r 4 6 s
r 14 5 n
h 3 2 e
r 6 6 s
t 7 6 e
h 9 6 w
r 9 11 e
f 15 7 s
f 5 1 s
r 7 11 w
h 10 0 e
r 16 8 w
10 2

5 11
3
t 1 2 s
f 1 5 s
t 0 0 s
20 1

17 17
16
r 11 15 n
h 9 3 s
h 9 12 e
f 6 5 e
t 12 4 n
f 5 14 w
t 16 2 s
f 5 0 w
t 10 2 n
f 4 3 n
f 10 15 s
r 14 16 s
f 16 0 e
r 2 8 s
r 14 4 w
r 10 8 e
12 3

8 10
6
t 1 5 w
h 0 9 e
f 6 2 w
h 5 9 s
h 5 5 s
f 0 7 e
9 4

13 20
11
r 1 12 n
h 8 6 e
t 2 11 e
f 6 2 s
t 1 13 s
f 4 11 n
t 5 16 n
f 0 11 n
h 4 4 w
h 9 9 s
r 6 4 e
17 1

12 18
8
r 2 11 w
h 1 2 s
f 4 1 n
t 2 12 s
h 1 5 n
t 11 6 w
t 6 3 n
h 9 8 e
15 4

8 7
7
r 0 2 s
r 6 4 w
r 6 0 n
t 1 0 n
r 3 6 w
r 1 6 e
r 3 2 s
8 3

5 20
3
t 2 10 e
r 4 14 w
f 1 0 n
7 2

12 10
6
r 4 9 w
r 1 4 w
h 10 3 e
t 8 9 e
h 1 0 e
t 1 3 s
7 3

5 10
3
f 2 6 s
f 0 8 e
f 2 8 e
19 4

15 15
10
f 11 2 w
t 14 11 n
f 5 4 s
t 13 8 s
h 3 6 s
r 6 14 s
r 13 9 n
h 4 0 s
f 0 4 s
r 10 3 s
7 4

20 18
16
t 18 6 e
h 12 11 w
r 13 1 w
f 1 3 w
h 15 13 e
r 13 10 w
f 8 13 s
t 18 12 s
r 9 17 e
h 14 5 w
h 3 6 s
f 15 8 n
h 1 5 n
t 5 16 e
t 17 16 e
r 19 8 n
19 1

8 6
7
h 7 5 n
t 4 3 w
f 0 5 w
t 0 1 e
t 4 5 n
h 3 2 s
r 1 3 n
12 2

19 15
15
t 4 9 w
h 7 4 s
f 11 14 w
r 16 14 w
t 8 12 e
f 6 4 s
h 11 5 s
t 4 6 n
t 12 12 s
f 2 14 s
h 8 4 e
r 2 11 s
r 9 14 s
t 7 14 s
f 10 1 e
20 2

16 18
14
r 10 1 e
f 15 2 w
f 6 3 w
h 3 15 n
f 12 3 w
r 8 9 n
t 4 12 s
t 1 8 s
t 7 13 s
f 3 10 e
r 2 17 n
h 2 10 w
r 5 12 e
r 7 7 n
15 4

14 6
13
r 6 3 n
t 9 0 s
t 1 0 s
h 11 0 e
t 11 3 n
t 0 3 w
r 2 1 e
f 13 3 n
f 13 1 w
h 6 0 n
h 6 2 n
f 8 4 s
t 10 3 e
20 4

19 13
10
r 16 5 e
f 6 10 e
h 12 12 w
f 14 10 s
h 6 11 w
f 2 1 e
h 17 1 w
t 9 5 e
t 15 10 w
r 14 2 s
16 4

11 12
4
f 6 2 s
h 2 4 s
h 8 11 e
h 1 1 s
10 1

19 12
5
r 4 2 e
t 14 1 n
t 3 8 s
h 9 0 w
r 3 4 w
18 3

5 10
4
h 0 8 e
h 2 9 n
f 1 5 w
t 2 4 w
13 1
