12

23 21
21
f 5 15 n
h 6 11 s
f 8 12 e
r 21 12 w
f 8 18 e
h 9 3 e
f 14 5 s
t 19 20 w
r 4 11 e
r 1 13 n
t 6 18 n
h 4 20 n
r 10 14 n
r 7 9 w
r 10 17 w
t 21 1 n
h 10 2 w
t 8 1 n
t 16 15 w
f 4 1 s
h 5 13 w
59 2

24 20
21
h 22 9 s
h 0 2 w
r 14 18 w
f 23 7 e
r 19 15 e
f 6 16 w
f 4 8 n
t 17 4 w
h 9 14 s
r 10 15 e
f 23 2 s
t 22 15 w
r 4 19 e
h 3 2 e
h 5 11 s
h 1 9 e
t 19 4 w
f 18 0 w
f 3 1 e
t 9 8 n
t 2 13 s
68 4

21 22
23
t 17 1 n
f 15 1 w
f 1 11 s
t 0 2 n
t 14 18 s
t 13 17 s
r 4 0 e
t 8 12 s
t 11 4 e
h 18 14 w
r 1 8 e
h 16 5 n
t 15 4 e
f 2 14 e
r 8 0 s
t 1 9 e
r 20 5 n
f 6 12 e
h 4 3 e
h 9 10 w
t 16 7 s
t 6 6 e
f 1 19 w
77 7

21 21
21
f 11 18 n
t 1 16 w
f 16 10 n
r 0 7 n
t 6 7 n
r 5 2 n
h 6 9 e
h 10 3 e
f 2 10 e
t 13 20 e
t 18 0 n
r 20 13 e
r 20 7 n
h 20 6 n
h 17 14 n
h 19 11 e
f 13 14 w
r 5 4 w
r 0 4 e
r 15 18 e
t 20 3 e
91 10

23 21
22
r 5 14 n
t 4 13 n
t 5 12 e
h 9 2 n
f 11 12 w
f 19 20 e
h 5 0 n
f 18 0 s
h 14 7 e
f 20 10 n
r 9 16 s
h 4 17 s
h 2 9 e
r 15 10 w
f 13 12 e
f 3 14 s
r 2 14 e
f 16 11 s
t 17 19 e
f 2 15 e
f 4 18 e
t 1 6 e
19 10

22 25
24
f 4 23 n
f 16 5 w
t 13 22 n
f 13 24 w
f 5 9 n
r 7 10 s
f 6 7 e
t 14 10 w
t 5 9 w
f 7 7 w
t 18 8 s
t 5 9 n
r 0 4 w
f 16 19 n
h 4 10 w
h 19 2 w
t 4 17 s
h 0 13 s
t 17 24 e
t 18 0 w
h 15 9 e
t 1 18 w
h 6 5 e
r 10 9 s
86 13

21 22
22
r 19 21 e
t 4 2 e
f 3 21 w
h 18 9 s
t 7 9 w
f 20 5 w
h 4 12 e
r 12 18 w
f 1 16 n
h 3 12 s
h 10 0 s
f 2 1 s
f 12 21 w
r 12 13 e
r 9 2 n
t 9 3 n
t 13 8 s
t 15 7 e
h 2 19 e
r 5 9 e
f 5 8 e
t 20 7 n
73 5

24 24
25
r 9 3 e
t 10 12 e
f 5 0 e
f 20 22 e
r 5 20 s
r 14 17 e
t 19 20 s
t 2 18 n
f 15 5 e
f 7 20 n
t 6 8 n
t 18 2 e
t 6 4 e
r 6 6 n
r 20 3 e
f 14 4 e
r 18 6 e
t 10 13 e
h 22 9 w
f 15 11 s
h 20 4 s
r 17 8 n
t 11 3 w
h 8 13 e
r 10 0 n
93 4

24 24
24
r 19 21 w
t 12 9 e
r 4 2 e
r 8 9 w
f 19 17 w
t 20 7 e
h 23 22 s
t 21 8 w
h 10 0 w
h 11 13 e
f 20 17 s
t 20 17 w
f 5 20 e
f 10 8 n
t 2 21 w
r 1 3 w
h 21 8 s
h 4 17 w
h 20 15 e
f 10 1 e
r 9 4 e
h 9 2 s
h 20 17 e
t 1 20 n
89 8

25 24
21
h 19 20 e
t 8 20 e
h 3 18 e
h 23 14 n
h 11 17 w
h 13 23 s
r 23 21 w
f 22 8 w
f 24 4 e
f 6 2 s
f 10 7 e
t 15 10 e
r 8 16 e
t 4 4 e
f 17 16 n
h 3 13 e
f 21 8 e
h 13 1 e
r 24 0 w
t 1 15 n
h 8 13 s
87 11

22 25
23
t 6 18 s
h 5 24 s
t 7 13 s
f 13 10 s
r 21 3 s
t 11 9 s
h 7 12 s
r 19 13 w
f 21 18 w
t 15 20 w
h 5 16 n
h 10 14 n
h 19 14 e
f 8 1 w
r 18 13 n
h 10 10 s
r 8 7 n
f 8 19 n
h 18 3 e
r 11 18 n
t 3 14 s
t 4 6 e
h 17 7 s
5 15

20 20
23
h 10 19 n
r 5 2 s
h 17 2 w
t 4 2 w
r 18 5 s
f 13 10 n
t 4 19 n
f 11 13 s
h 5 0 w
f 1 4 e
r 13 7 s
t 19 19 s
h 3 7 e
h 17 12 s
r 11 14 s
f 18 16 s
t 2 18 s
f 9 8 e
t 5 19 s
t 19 0 s
h 2 4 e
h 2 17 n
f 5 2 s
45 15
