11

6 6
19
t 1 1 w
h 2 3 n
h 4 4 s
r 0 2 s
t 0 5 s
r 3 5 s
t 4 4 n
t 1 3 w
t 3 1 e
r 4 1 n
f 1 5 w
f 2 5 s
r 5 0 w
h 0 1 s
r 0 2 n
t 3 5 w
h 5 0 n
f 1 3 w
h 2 2 s
68 18

14 26
45
h 1 8 s
f 5 7 s
r 7 25 n
h 2 14 w
r 11 23 w
t 2 2 e
f 3 11 e
t 7 7 s
f 4 19 n
h 7 22 e
t 6 20 w
r 13 19 s
f 13 6 n
t 3 8 w
r 8 14 n
f 4 21 w
r 8 6 e
t 8 0 s
h 10 16 e
r 9 3 s
r 2 23 s
f 1 20 w
h 6 8 s
t 12 4 w
t 3 0 s
r 2 6 n
t 13 5 s
h 9 5 e
t 13 17 s
t 12 4 n
t 10 22 n
h 6 0 n
h 8 9 n
t 3 8 s
t 2 10 e
r 11 2 s
r 10 24 w
t 4 21 e
t 2 16 n
f 4 15 w
h 5 9 n
h 13 20 s
f 13 4 e
h 8 24 w
t 11 1 w
64 17

12 35
8
t 8 15 s
t 9 29 e
r 9 34 n
r 11 32 n
h 1 21 e
t 11 20 w
h 7 21 e
r 1 5 n
54 5

41 39
39
h 6 36 n
h 27 9 e
t 29 7 w
t 32 28 n
r 10 8 e
t 26 8 w
r 2 9 s
h 17 27 s
f 24 8 s
f 36 13 n
f 22 33 s
f 24 38 w
r 38 19 e
f 25 22 n
h 25 34 s
h 11 1 n
f 34 6 n
r 3 1 e
f 10 21 n
r 4 32 e
f 27 20 s
t 39 19 w
f 3 4 s
h 31 8 s
r 23 17 n
r 19 24 n
r 3 18 e
f 26 8 e
h 15 18 s
t 33 17 w
r 33 25 n
t 24 34 s
r 32 12 e
f 32 0 s
f 40 24 n
h 35 23 w
r 5 27 w
h 38 18 n
h 39 22 w
30 4

15 26
28
r 10 14 n
h 9 19 s
f 5 3 e
f 9 9 e
h 12 11 w
h 2 16 w
r 13 12 e
h 14 11 e
f 3 13 w
r 14 17 e
r 10 2 n
f 3 22 w
h 3 10 w
r 5 0 n
h 1 15 w
h 0 9 w
h 14 9 w
r 3 11 n
r 4 2 s
h 9 17 w
r 0 12 w
t 1 23 e
r 6 10 s
f 13 17 e
f 10 6 s
f 11 7 e
h 12 25 n
r 11 12 w
63 18

42 25
26
t 22 4 e
t 15 22 e
h 35 21 s
h 27 19 s
t 21 4 w
r 29 0 e
t 5 18 w
t 11 0 e
f 39 3 n
t 41 7 s
f 6 13 n
r 12 15 w
f 15 20 e
r 7 15 w
t 27 14 s
h 15 16 e
f 20 0 s
h 28 23 n
t 18 12 n
f 25 22 w
t 31 17 w
t 7 5 e
h 20 6 n
f 28 3 e
t 36 10 e
r 41 0 e
41 11

29 7
3
r 27 3 e
f 21 4 e
f 21 1 w
30 20

38 50
8
h 24 28 n
r 12 17 n
t 11 37 s
f 6 24 s
t 11 48 w
t 11 10 n
h 36 0 n
f 8 2 n
64 12

10 6
41
h 0 4 e
f 3 5 n
f 6 3 s
t 3 5 s
f 2 2 e
t 4 4 n
t 2 4 e
f 0 5 w
r 4 0 s
r 5 4 n
t 0 1 e
t 2 0 w
t 1 4 s
t 0 3 s
h 0 5 w
f 0 2 s
h 5 2 w
t 5 2 e
h 3 3 s
h 3 3 w
h 3 5 n
f 1 3 w
r 6 1 e
h 4 4 n
t 0 5 w
f 3 0 n
h 3 5 n
h 6 3 n
h 4 3 n
r 0 2 e
h 8 1 w
t 6 5 w
h 8 5 n
r 4 4 e
h 4 1 s
h 3 4 n
f 6 0 w
h 1 2 e
t 5 0 w
t 7 4 s
t 5 4 s
13 19

26 9
27
t 21 7 s
h 5 8 s
r 17 2 e
f 8 6 s
h 14 6 s
h 4 4 s
h 21 0 n
r 9 2 w
r 15 8 w
t 3 4 e
t 12 1 s
h 4 6 n
t 8 5 e
f 20 5 n
h 13 5 w
t 15 6 s
f 18 4 n
f 24 2 n
t 19 8 e
h 19 1 w
r 15 5 n
r 14 1 e
r 2 0 e
r 9 0 s
t 16 0 w
h 17 5 e
h 3 2 w
60 17

4 5
24
t 3 3 w
f 0 2 n
t 2 4 s
r 1 0 e
r 1 0 n
t 0 1 s
r 0 1 s
t 0 1 n
t 3 2 s
r 1 2 s
h 2 3 e
r 3 1 n
r 0 1 e
r 0 1 w
h 0 1 w
r 3 2 n
h 2 1 w
r 3 4 e
t 0 3 w
h 1 4 w
f 0 2 w
t 3 0 w
h 0 2 s
f 1 3 n
27 8
