13

14 5
13
h 10 1 s
t 12 4 e
h 8 1 w
r 5 1 s
t 4 3 n
f 13 4 e
t 6 2 w
t 4 1 w
t 4 2 e
h 7 3 w
r 13 3 e
f 1 0 w
r 13 1 e
10 1

12 9
16
r 1 5 s
f 0 3 s
f 8 5 w
r 10 8 w
f 4 3 w
h 7 3 e
t 3 3 s
h 1 7 s
f 11 8 e
r 7 1 s
t 2 8 n
t 11 6 n
h 2 8 w
r 3 4 n
h 2 3 w
f 2 1 e
6 1

6 6
11
h 1 4 n
r 0 2 w
t 0 4 w
h 2 3 w
f 0 1 s
f 5 5 e
h 3 4 e
t 2 3 n
r 3 5 e
h 5 4 s
r 3 4 e
17 3

25 14
17
f 0 12 w
h 16 6 n
h 15 9 e
h 7 13 w
h 6 2 s
h 2 7 e
r 6 4 s
t 17 11 e
t 17 3 s
f 15 0 e
t 0 12 e
r 17 4 s
t 8 2 n
f 0 1 n
t 5 9 n
t 2 2 n
t 0 2 n
12 3

28 18
21
r 24 4 e
r 23 5 s
h 21 6 e
r 19 6 n
t 23 4 e
h 10 3 n
f 5 0 w
f 19 11 w
h 19 6 w
h 1 3 e
h 19 2 s
t 5 17 e
r 6 11 w
h 25 5 n
h 21 7 w
h 9 13 n
h 21 17 s
t 14 9 n
h 2 17 n
t 3 6 s
f 4 16 e
10 2

21 10
12
h 8 0 w
t 5 1 w
f 9 5 w
f 12 3 n
f 9 1 w
t 18 6 w
h 19 9 e
r 16 6 n
h 10 7 w
h 8 5 s
f 17 4 w
t 9 8 s
20 5

20 22
16
t 12 12 s
t 1 16 n
r 5 15 e
h 10 17 s
h 2 13 s
r 8 1 s
r 11 1 e
f 12 11 e
f 1 5 n
t 15 14 s
r 16 7 e
h 10 16 w
t 0 7 n
h 18 10 w
r 7 21 w
f 7 8 e
18 9

28 18
23
f 6 7 n
h 19 6 s
f 3 10 w
t 2 0 w
h 4 11 s
f 0 5 w
h 11 4 e
f 15 16 w
f 3 4 n
h 3 12 s
f 27 3 s
t 25 16 e
h 3 13 w
t 1 12 s
h 2 8 n
h 21 3 w
h 4 12 n
t 15 11 n
f 3 8 s
t 14 1 e
f 19 12 e
h 7 14 e
r 21 1 s
12 3

22 24
27
f 7 6 w
h 4 22 n
h 11 5 e
f 20 8 w
r 8 19 w
r 5 18 s
t 10 13 e
t 2 20 s
t 10 19 e
h 20 9 s
r 16 0 n
h 3 21 e
h 19 1 e
h 0 22 n
f 4 23 w
t 20 4 s
f 0 12 e
t 2 15 e
f 7 16 e
h 0 20 n
h 15 2 w
r 8 12 w
t 2 11 n
f 13 18 n
f 1 6 w
h 4 10 e
t 20 1 e
16 2

26 28
11
h 12 18 n
t 21 4 w
f 4 16 n
r 21 10 e
t 3 2 n
r 12 19 n
f 15 15 n
h 6 21 n
t 25 23 n
h 21 11 s
h 4 24 w
22 1

10 6
6
t 1 4 n
f 6 5 e
h 9 3 s
f 4 1 s
r 2 2 n
t 8 4 e
20 10

20 22
16
t 12 12 s
t 1 16 n
r 5 15 e
h 10 17 s
h 2 13 s
r 8 1 s
r 11 1 e
f 12 11 e
f 1 5 n
t 15 14 s
r 16 7 e
h 10 16 w
t 0 7 n
h 18 10 w
r 7 21 w
f 7 8 e
22 5

25 14
20
f 0 12 w
h 16 6 n
h 15 9 e
h 7 13 w
h 6 2 s
h 2 7 e
r 6 4 s
t 4 4 n
t 17 11 e
t 17 3 s
f 15 0 e
t 0 12 e
r 17 4 s
t 8 2 n
f 0 1 n
t 5 9 n
r 1 9 e
r 8 7 s
r 7 9 w
t 6 4 w
20 1
